1779	LG01	133407	5.28593356
1780	LG01	133428	5.91973682
7310	LG01	1025344	6.07907118
112712	LG02	2411275	5.58997639
112713	LG02	2411496	5.50821435
112715	LG02	2412626	5.78915483
112716	LG02	2412746	5.70772460
112717	LG02	2412770	5.87193814
112718	LG02	2412845	6.12333204
112719	LG02	2412914	5.79050889
112720	LG02	2412932	6.09290348
112721	LG02	2412953	5.72218099
112722	LG02	2413001	5.54624684
112723	LG02	2413060	5.93784454
112726	LG02	2413316	5.95704509
112728	LG02	2413535	5.65188427
112729	LG02	2413559	5.63595524
112730	LG02	2413574	5.56628964
112733	LG02	2414015	5.87106797
112734	LG02	2414255	5.30516970
112735	LG02	2414279	5.32345607
112737	LG02	2414491	5.63734856
112738	LG02	2414611	5.50988035
112739	LG02	2414620	5.07278341
112740	LG02	2414647	5.37513441
112741	LG02	2414680	5.65764794
112742	LG02	2414699	5.50731293
112743	LG02	2414714	5.46118020
112744	LG02	2414720	5.39008974
112745	LG02	2414721	5.43318691
112746	LG02	2414761	5.60263153
112747	LG02	2414764	5.70549634
112748	LG02	2414769	5.59829486
112749	LG02	2414772	5.48853439
112750	LG02	2414779	5.54340133
112751	LG02	2414786	5.64622096
112752	LG02	2414792	5.57084379
112753	LG02	2414800	5.63421355
112754	LG02	2414803	5.55717089
112755	LG02	2414804	5.44409394
112756	LG02	2414810	5.47471707
112757	LG02	2414819	5.55984763
112758	LG02	2414820	5.43570430
112759	LG02	2414899	5.88661731
112761	LG02	2415053	5.80305757
112763	LG02	2417779	5.74023384
112764	LG02	2417845	5.43725016
112765	LG02	2417861	5.25562843
112766	LG02	2417884	5.72057509
112767	LG02	2417979	5.59155710
112768	LG02	2418029	5.92858133
112770	LG02	2418441	5.08187813
112771	LG02	2418450	5.11070726
112801	LG02	2428518	5.11449711
112803	LG02	2428826	5.03226618
143261	LG02	4695749	5.05133234
263691	LG03	7874818	5.61327232
320600	LG04	5609326	5.77083292
320608	LG04	5609708	5.75624972
320673	LG04	5622049	5.59041922
321713	LG04	5703796	5.04131861
391034	LG05	5922776	5.21191477
391035	LG05	5922784	5.56618068
416489	LG06	2177402	5.68338115
417338	LG06	2272487	5.78115664
422190	LG06	2714836	5.15242027
434412	LG06	4045329	5.00220137
434413	LG06	4045363	5.33726635
434418	LG06	4045588	5.24816446
434419	LG06	4045602	5.24872164
434422	LG06	4045660	5.13100936
540872	LG08	882333	5.09253892
727991	LG11	1185509	5.39961850
749775	LG11	3770604	6.66018893
784140	LG12	1859611	5.28157147
784145	LG12	1859830	5.08838851
784146	LG12	1859869	5.04430084
819291	LG12	4818842	5.60930027
935584	LG15	1817707	5.15703387
935823	LG15	1846438	5.03294614
935856	LG15	1847085	5.06589692
935859	LG15	1847205	5.23946765
938138	LG15	2103540	7.95186980
939372	LG15	2191500	5.09485117
939664	LG15	2198091	5.20937751
939667	LG15	2198302	5.12785352
939669	LG15	2198401	5.11863604
939674	LG15	2198626	5.38291386
939675	LG15	2198676	5.79935163
939677	LG15	2198692	6.39270398
939680	LG15	2198700	7.13287844
939681	LG15	2198745	8.65364165
939686	LG15	2198876	7.27987338
939687	LG15	2198894	5.52360973
939868	LG15	2208231	5.29803327
940479	LG15	2232600	6.48987935
940481	LG15	2233055	6.85168933
940484	LG15	2233369	6.84917227
940504	LG15	2235951	7.09261159
940518	LG15	2237229	7.46990434
940523	LG15	2237672	5.14239048
940536	LG15	2238834	7.33132124
940553	LG15	2240602	5.21385206
940861	LG15	2253676	6.20197236
941855	LG15	2343925	5.39830364
942432	LG15	2407963	5.73215680
942843	LG15	2451962	5.53802138
947420	LG15	3040549	5.26233775
958029	LG15	3933947	5.36691400
958030	LG15	3933960	5.53795929
963560	LG15	4287057	5.00510511
970470	LG16	228938	7.93429774
985233	LG16	1444893	5.52342138
990898	LG16	1933332	5.13598663
990901	LG16	1933395	5.23439351
990903	LG16	1933434	5.06917735
990905	LG16	1933524	5.06868062
990906	LG16	1933571	5.00632847
990907	LG16	1933598	5.11523584
990909	LG16	1933679	5.15893649
990910	LG16	1933692	5.14675937
1098022	LG18	2327917	5.08767578
