expected: 1011 candidates: 1012
LG10 4431412 130420.313 4.934341327203241
LG10 4431423 130420.313 4.934341327203241
LG10 4431868 143937.6176 4.912143582803726
LG10 4431460 130453.896 4.832154708994085
LG10 4431461 130453.896 4.832154708994085
LG15 2241709 171159.3159 4.744127318306116
LG10 4431545 130261.1669 4.7350232126499145
LG15 2246418 106403.9028 4.598543143854875
LG15 2246378 105570.225 4.591814138741919
LG15 2246408 105568.9942 4.591804165144923
LG05 4740510 201438.8278 4.590148312078859
LG15 2246376 105570.225 4.5833228342017724
LG10 4431598 130585.7036 4.533889079139163
LG10 4431610 130484.15 4.533223542669103
LG10 4431502 130543.0967 4.529388942698346
LG15 2107665 130940.055 4.506801697562171
LG10 4431667 112881.9505 4.475097368123853
LG10 4431681 112766.8462 4.474224614214157
LG10 4431774 112766.7302 4.468523456724058
LG15 2246290 105326.7127 4.427686392235258
LG10 4431738 112766.8462 4.425337603515512
LG10 4431739 112766.8462 4.425337603515512
LG15 2110303 130741.5434 4.4135364851042675
LG15 2110305 130741.5434 4.4135364851042675
LG15 2110221 130741.5434 4.40933863308842
LG15 2110237 130741.5434 4.40933863308842
LG05 4732186 195378.1639 4.406656514169319
LG15 2110056 130741.5434 4.406071931828563
LG15 2110058 130741.5434 4.406071931828563
LG15 2110066 130741.5434 4.406071931828563
LG15 2110067 130741.5434 4.406071931828563
LG15 2110074 130741.5434 4.406071931828563
LG15 2110075 130741.5434 4.406071931828563
LG15 2110076 130741.5434 4.406071931828563
LG15 2110147 130741.5434 4.406071931828563
LG15 2110151 130741.5434 4.406071931828563
LG15 2110345 130741.1676 4.406069472893634
LG15 2143611 140009.5534 4.392407253753777
LG15 2593336 78013.9835 4.376704677632596
LG15 2105771 129863.4829 4.372718530414762
LG10 4466862 93231.5707 4.363003275728114
LG15 2105597 126484.5161 4.356827427806596
LG15 2245237 105445.0992 4.355017531972037
LG15 2246286 105611.4988 4.350074761398523
LG05 4732097 166273.6779 4.349266921074498
LG05 4731992 166269.4557 4.349245197861737
LG15 3371635 88196.1917 4.347808168210924
LG05 4737338 194728.6897 4.346193916845301
LG15 2242006 169212.4625 4.33486505192147
LG05 4732524 166514.9132 4.3233679933754905
LG15 2143342 139954.2593 4.322277847101989
LG15 2245411 128867.3986 4.321812232254522
LG04 290121 117055.8249 4.315216810307183
LG15 2246160 105417.7779 4.308853321307296
LG15 2246188 105417.7779 4.308853321307296
LG15 2051846 110475.5598 4.291827977933023
LG15 2593371 78013.9835 4.291171123060784
LG15 2107551 130940.055 4.278428442454908
LG15 2051808 104267.2281 4.27473237605253
LG15 2245796 105422.5939 4.268026255571986
LG15 2245480 105493.4778 4.267620666176123
LG15 2245521 105493.4778 4.267620666176123
LG05 4733622 195024.2961 4.264611244520238
LG15 2128575 120705.0975 4.263323034658214
LG15 2246281 105611.4988 4.26177305575183
LG12 1328057 51993.1413 4.260977752897365
LG15 2244933 128213.5316 4.258142318519848
LG15 2593495 78031.5558 4.255344912801056
LG15 2051810 104275.3789 4.254417190960857
LG04 4850521 95973.3429 4.254252900698916
LG15 2143015 140032.024 4.251708280990539
LG15 2143317 140032.024 4.251708280990539
LG15 2246279 105535.8534 4.250275043338316
LG15 2128486 120613.103 4.246205592376411
LG15 2245279 105445.0992 4.246022792231989
LG12 1817960 42404.7793 4.24368146234316
LG05 4737150 162476.1631 4.235381351536472
LG05 4740386 167161.4572 4.233362806931736
LG15 2127810 147671.7924 4.230160861346799
LG15 2243618 104977.6716 4.2180526012353505
LG15 2245768 105422.5939 4.217867715413996
LG15 2051791 104270.5811 4.215937216467968
LG10 4516919 87948.4778 4.212010084532322
LG05 4736619 162375.9279 4.203691243764572
LG05 4740197 167210.6842 4.199224871542532
LG05 4736789 167469.3475 4.198630125749881
LG15 2245915 105418.0613 4.192113085360244
LG15 2245940 105418.0613 4.192113085360244
LG05 4739656 167233.6253 4.189827673930942
LG05 4739760 167233.6253 4.189827673930942
LG03 2770086 120405.931 4.186957692911695
LG12 3457792 116453.6667 4.175588792011123
LG12 3457757 116435.1136 4.175452490346703
LG15 2107058 130248.2126 4.171921894840124
LG15 2107071 130248.2126 4.171921894840124
LG15 2107213 132507.3402 4.170011276002068
LG15 2052562 104312.2557 4.168863615113349
LG15 2128370 120613.103 4.16035361206472
LG04 289798 88587.2383 4.151033248986638
LG12 1336097 47768.754 4.149917486454187
LG06 5493004 61469.9903 4.146192553963179
LG12 1328296 52026.3079 4.145224067295328
LG10 4464293 94831.875 4.144647755402908
LG05 4733305 166193.3259 4.142860168372253
LG05 4733304 166192.5171 4.142856005128262
LG10 4549084 135858.5607 4.1415906380150425
LG05 4737216 162476.1631 4.139884977950139
LG05 4733472 166222.2928 4.137917459340811
LG05 4733870 166260.6861 4.136829541570075
LG10 4464276 91323.9707 4.133287954619505
LG15 2245019 104769.8961 4.133277828537691
LG15 2127677 122571.5112 4.129496134444423
LG15 2127678 122571.5112 4.129496134444423
LG10 4431355 46198.8695 4.129063056979948
LG15 2127686 122571.5112 4.128618286499078
LG15 2127687 122571.5112 4.128618286499078
LG05 4737690 162461.4558 4.128142581208121
LG04 5049505 57461.6494 4.12616936179102
LG05 4738457 167630.2473 4.12157121198855
LG15 2135754 125860.1548 4.121219705314187
LG04 5050991 84937.1133 4.114297317587612
LG15 2106182 130012.8764 4.110444992611576
LG15 2142868 140205.6711 4.109950692363772
LG15 3355075 56302.0083 4.107180790786468
LG15 2142923 151941.4279 4.105735001450445
LG15 2191869 165742.9457 4.1039225130255
LG15 2191871 165742.9457 4.1039225130255
LG05 4738360 162388.4003 4.103469744236777
LG15 2192994 168580.1636 4.100614029303073
LG15 2192995 168580.1636 4.100614029303073
LG15 2135103 123200.8902 4.100528329306383
LG03 2719520 103572.1976 4.097901467310455
LG15 2193167 167332.2168 4.097373382916274
LG15 2106185 155104.3413 4.095896400279304
LG12 1335161 49168.2958 4.095727084129191
LG15 2127747 122571.5112 4.094072518826539
LG15 2191854 165742.9457 4.093609964179674
LG15 2193050 170860.2333 4.0913765599893805
LG15 2192928 168737.6242 4.091049261381358
LG15 2192940 168737.6242 4.091049261381358
LG15 2192943 168737.6242 4.091049261381358
LG15 2594271 78015.3931 4.0909859269609035
LG15 2192957 168580.1636 4.090250594033758
LG12 3457798 116453.6667 4.090094703694152
LG04 289747 88587.2383 4.089135271770182
LG15 3190626 55562.8833 4.087610090514373
LG10 4431261 49840.0842 4.075259000653994
LG04 290329 88320.6519 4.074251447630086
LG15 2192082 165711.0143 4.06956948414999
LG15 2192083 165711.0143 4.06956948414999
LG15 2192084 165711.0143 4.06956948414999
LG12 3457810 116453.6667 4.069520048894983
LG05 4735736 162387.5749 4.068814504773292
LG15 2595065 78051.4639 4.0655715510552035
LG06 5492993 52453.7151 4.061676769699222
LG15 2191779 165742.9457 4.061456818298174
LG06 3090980 65151.589 4.0601384239148395
LG15 2192034 165742.9457 4.057656656674345
LG15 2191653 165744.5061 4.057492187594892
LG12 1304989 46881.8762 4.056428518140792
LG15 2308082 58697.9879 4.052494027219008
LG10 4431200 49836.0611 4.051794964334073
LG15 2245580 105495.066 4.047673906263754
LG15 3405099 43333.7286 4.045425317038102
LG15 2243637 105055.8551 4.041312740684583
LG05 4733025 195138.2742 4.039095482668653
LG12 1336547 48662.1417 4.021948816585438
LG15 2127613 122567.302 4.017389709306252
LG12 1343363 47415.1943 4.01724922588986
LG12 1342301 47407.1954 4.014281401692617
LG10 4516865 92622.0276 4.010207713495795
LG12 1335218 49491.3806 4.006655454201124
LG04 4858228 93511.4631 3.9989270323247683
LG15 2155410 139915.5594 3.9960858372642156
LG04 5049232 56480.8411 3.9942957072055454
LG16 2967721 97787.6203 3.993574745263709
LG15 2106561 130255.6081 3.9923017304574193
LG15 2106770 130255.6081 3.9923017304574193
LG12 1336361 47778.8091 3.986901612712654
LG12 1336365 47778.8091 3.986901612712654
LG15 2243964 104951.2535 3.986414807252637
LG12 1343103 48076.9157 3.986209004322464
LG15 2135213 154681.2971 3.9858640002739025
LG15 2135338 154681.2971 3.9858640002739025
LG09 1746751 68564.575 3.9850477482298317
LG15 2212597 168960.5908 3.9849639264585277
LG15 2212612 168960.5908 3.9849639264585277
LG10 4431189 49865.4375 3.984860745782747
LG10 4431182 49848.7511 3.9828982193953406
LG15 2212575 168959.9345 3.9824748524045726
LG05 4735325 162623.6043 3.9820823607798075
LG05 4735610 162623.6043 3.9820823607798075
LG15 2212562 168960.5908 3.981687047755993
LG03 2725553 101293.5364 3.977438212807571
LG05 4737765 162324.7058 3.975195197214982
LG06 3089817 52893.0906 3.9737440430657474
LG12 1343138 47447.8708 3.971092838014934
LG15 2244099 104800.6683 3.968778182280329
LG06 2115354 79812.5 3.9682304909047885
LG16 2989593 110777.2402 3.9651303424324866
LG15 2246083 105418.0613 3.96398270256862
LG15 2246146 105417.7779 3.9639804027761474
LG15 2144654 137859.5976 3.963581046064244
LG15 2594973 78022.1698 3.9619792247502046
LG01 4650169 49789.5503 3.9591607443615513
LG15 2245027 104769.8961 3.9568529921653806
LG16 3522590 37585.9888 3.956439454985425
LG05 4733220 166276.9518 3.9544136640870478
LG05 4733259 166250.3425 3.9542767527563876
LG06 3090693 65332.0143 3.9488340131730837
LG06 3090746 91316.1687 3.946924398978601
LG12 1335611 47719.2444 3.9466405891299203
LG05 4732808 166723.9903 3.9461943370519457
LG10 4464015 91323.9707 3.945506377874942
LG17 3795422 41657.0806 3.9450081428186707
LG10 4463996 91323.9707 3.9441040246796724
LG05 4732871 166248.1844 3.9437494690576735
LG06 3091030 54590.7097 3.9434305747567073
LG15 2594916 78033.9933 3.9409057640566085
LG05 4732998 166734.7715 3.940885093548546
LG15 2212550 168960.5908 3.938375572221337
LG15 2212554 168960.5908 3.938375572221337
LG04 239171 85259.7961 3.935762622577179
LG12 1342979 47436.8425 3.9356093391763407
LG01 4349263 40663.229 3.9353293668745546
LG15 3426876 59771.6083 3.934070907534618
LG15 2244105 104800.6683 3.933752035236717
LG15 2135381 123082.4078 3.933206021331677
LG10 4431127 50412.5184 3.9258483365531673
LG04 5050178 57202.8056 3.924880930521166
LG15 2594890 77998.1835 3.9228700033433954
LG15 2244184 104800.6683 3.9217823525278055
LG15 2048863 104039.5831 3.9205108826608006
LG10 4432986 123622.222 3.9192909516946073
LG04 289998 115899.0573 3.918705308121347
LG10 4432767 113121.8656 3.915402458887323
LG10 4432366 112921.9326 3.9152041144999994
LG15 2192701 167154.4517 3.9099934239858007
LG10 4535033 93207.2977 3.909039501834532
LG10 4535035 93207.2977 3.909039501834532
LG10 4535039 93207.2977 3.909039501834532
LG10 4535053 93207.2977 3.909039501834532
LG10 4535068 93207.2977 3.909039501834532
LG15 2107668 133296.2921 3.9083799006475934
LG10 4549149 120627.9428 3.9071837125397413
LG15 2127700 122571.5112 3.9052932039342547
LG15 2191383 165697.8991 3.9030150839259337
LG15 2191391 165697.8991 3.9030150839259337
LG10 4432775 113018.5515 3.9029762698419206
LG15 2192727 165619.8183 3.8999707360826417
LG05 4737323 204592.525 3.8994668785829525
LG12 1343231 48499.5894 3.8983722139526193
LG05 4737359 204239.025 3.897987503286981
LG04 5049190 56375.5672 3.896662701802078
LG15 2127787 122571.5112 3.892529133222474
LG10 4431226 49880.9778 3.8912470270023056
LG10 4431227 49880.9778 3.8912470270023056
LG15 2191287 167711.8204 3.8909034385320824
LG15 2127941 120803.4073 3.890373251708051
LG15 2192512 167939.0787 3.8871379225952074
LG15 2192521 167939.0787 3.8871379225952074
LG12 1342806 47457.5058 3.8870211706633127
LG10 4432321 113071.8004 3.886442554485675
LG15 3240730 54480.3849 3.8857723051115705
LG04 5049060 56375.5672 3.885695471521287
LG15 3322617 41054.3366 3.8839224912103876
LG12 1335804 47774.8914 3.8801773085627325
LG15 2127832 120803.4073 3.880099084155814
LG12 1343256 47464.4296 3.8799157263784987
LG15 2192792 167924.5691 3.879339885042771
LG15 2192802 167924.5691 3.879339885042771
LG15 2192822 167924.5691 3.879339885042771
LG15 2192238 165720.7279 3.879054352295208
LG15 2192149 165710.6221 3.8790021835546113
LG15 2192858 167924.5691 3.8779816942205363
LG15 2192860 167924.5691 3.8779816942205363
LG15 2192878 167924.5691 3.8779816942205363
LG15 2192899 167924.5691 3.8779816942205363
LG12 1343129 47447.8708 3.8778086492689545
LG05 4737719 204239.025 3.8771319138623137
LG06 3089818 47205.8227 3.8764299958427437
LG15 3369762 88196.1917 3.8763198441378965
LG05 4740435 197852.3746 3.8756893500120295
LG15 2192616 167154.4517 3.8754076116725575
LG15 2192675 167154.4517 3.8754076116725575
LG15 2192702 167154.4517 3.8754076116725575
LG15 2192790 167154.4517 3.8754076116725575
LG15 2192632 167147.4517 3.875371786158566
LG15 2108194 133283.3784 3.8744863599911197
LG15 2108198 133283.3784 3.8744863599911197
LG15 2108211 133283.3784 3.8744863599911197
LG15 2108224 133283.3784 3.8744863599911197
LG15 2108244 133283.3784 3.8744863599911197
LG15 2108246 133283.3784 3.8744863599911197
LG15 2192564 169916.6324 3.8737380977802696
LG15 2127926 120803.4073 3.8723217740196816
LG12 1335762 48739.0582 3.870422538462136
LG15 2192368 165720.7279 3.869448039166084
LG15 2192381 165720.7279 3.869448039166084
LG15 2192409 165720.7279 3.869448039166084
LG15 2192411 165720.7279 3.869448039166084
LG15 2192418 165720.7279 3.869448039166084
LG15 2192431 165720.7279 3.869448039166084
LG15 2192459 165720.7279 3.869448039166084
LG16 2989470 127209.0122 3.8672568417733864
LG10 4535272 93207.2977 3.8667787822234594
LG10 4535306 93207.2977 3.8667787822234594
LG10 4535331 93207.2977 3.8667787822234594
LG08 1692121 37128.6737 3.8666752118464554
LG15 2192550 167939.0787 3.8661971542096762
LG15 3372405 57056.5857 3.865897652269061
LG15 3372417 57056.5857 3.865897652269061
LG08 1692113 37128.6737 3.8635080301446014
LG15 2192479 167939.0787 3.861704599333299
LG15 2048858 104039.5831 3.8611126481884503
LG15 2128251 120801.1067 3.8604145362032383
LG15 2159059 154486.4865 3.8597234421162026
LG15 2159060 154486.4865 3.8597234421162026
LG15 2159062 154486.4865 3.8597234421162026
LG15 2159076 154486.4865 3.8597234421162026
LG15 2159079 154486.4865 3.8597234421162026
LG15 2159081 154486.4865 3.8597234421162026
LG15 2159082 154486.4865 3.8597234421162026
LG10 4136597 31845.5714 3.8573292451022327
LG12 1342521 48500.5313 3.8551697268977274
LG05 4021798 67109.0625 3.854149333007761
LG05 4734694 162453.3833 3.852125121256588
LG15 2191296 167722.3566 3.8519757075149097
LG15 2191302 167722.3566 3.8519757075149097
LG15 2191305 167722.3566 3.8519757075149097
LG15 2127990 120803.4073 3.851417077986878
LG16 3080428 66146.9437 3.84996688554308
LG12 1074150 70481.4601 3.849088526701203
LG06 3090607 58968.8481 3.8490298668273124
LG04 241474 85972.6282 3.8468052018490986
LG12 1328327 36682.6856 3.846285712906696
LG12 1328370 36682.6856 3.846285712906696
LG10 4488274 94679.0047 3.84611535003138
LG05 4734386 162477.2167 3.845612039227054
LG15 2192922 168484.408 3.843061748011106
LG10 4432893 113082.6564 3.843059182897116
LG10 4432931 112972.7157 3.8422270801822154
LG15 2594591 78079.9593 3.8419623065588424
LG10 4432532 113162.3296 3.841373048449422
LG15 2191360 165697.8991 3.8408845484082024
LG15 2191361 165697.8991 3.8408845484082024
LG15 2191366 165697.8991 3.8408845484082024
LG15 2135256 123072.7726 3.8400839377547147
LG15 2191500 170009.6773 3.839498768584889
LG10 4432541 112892.2159 3.839328644018417
LG06 5382443 91829.9448 3.838721573795481
LG12 1297625 41947.3601 3.8377433992822945
LG16 2967072 75922.4661 3.8371964540711545
LG15 3315188 59921.0 3.837092013710994
LG10 4549120 101274.33 3.8362522425535537
LG10 4535211 93207.2977 3.83462739273522
LG10 4535218 93207.2977 3.83462739273522
LG15 2244509 104872.4438 3.8342355203314518
LG06 3090570 58976.3203 3.8321672387360857
LG02 3264527 70216.9167 3.830737004325201
LG15 2192316 165720.7279 3.8305989347755425
LG05 2299825 53358.75 3.828080352225109
LG15 2191459 167725.0643 3.827924947352954
LG15 2192907 170009.3984 3.824367699917968
LG15 2143741 151941.4279 3.8234933966661098
LG12 1297427 40654.891 3.8215461071949846
LG06 2501781 60785.3194 3.8211318188077126
LG15 2106148 130008.3634 3.8199368846954953
LG15 2142843 140205.6711 3.8197472960825958
LG15 2191485 165695.6278 3.81751085269285
LG15 2244683 104872.4438 3.815052075805543
LG15 2244781 104872.4438 3.815052075805543
LG06 5380734 48557.2272 3.814905884184164
LG15 2192909 168484.408 3.8136255459323603
LG15 2244057 104801.8221 3.8114478759496477
LG12 1297485 40642.7991 3.8069429336784655
LG15 2143486 140009.5534 3.806930512374883
LG15 2143508 140009.5534 3.806930512374883
LG15 2143719 140009.5534 3.806930512374883
LG12 1342388 47510.8425 3.8069139147236455
LG12 1298486 51251.7814 3.8056086002336507
LG12 1328465 36708.0996 3.805551256251674
LG01 4650233 36514.7459 3.8043441903368658
LG10 4482368 140303.0887 3.803738563825383
LG15 3404844 43333.7286 3.7975897504025675
LG15 2127838 120803.4073 3.7973242227238377
LG15 2192134 165710.6221 3.7953056460592154
LG05 5379086 55013.6085 3.7946014799691907
LG06 3092291 67658.6022 3.7945484800112355
LG06 3091135 54590.7097 3.794512003126331
LG08 3466512 35031.5595 3.7926618874179896
LG15 2143330 151941.4279 3.7921385430916725
LG15 3427975 39071.1152 3.792065820641202
LG15 2212616 168960.5908 3.791163453446324
LG15 2212622 168960.5908 3.791163453446324
LG15 2129655 149037.329 3.7911460173274207
LG04 5014330 96649.1269 3.790982864158437
LG15 2212771 168924.9225 3.790982841663485
LG10 4432837 113297.1108 3.7901909061872687
LG12 1343630 47486.0472 3.789808440774021
LG12 1298067 40628.7991 3.78934115805708
LG15 2109997 130629.0173 3.7893218288112878
LG15 2110017 130629.0173 3.7893218288112878
LG15 2110026 130629.0173 3.7893218288112878
LG15 2109935 130627.0794 3.7893091377433796
LG15 2109949 130627.0794 3.7893091377433796
LG15 2109954 130627.0794 3.7893091377433796
LG15 2109973 130627.0794 3.7893091377433796
LG15 2109975 130627.0794 3.7893091377433796
LG16 2967977 67605.333 3.7875854772327684
LG16 2940705 89791.6108 3.7864514489862167
LG10 4550090 139972.0861 3.7863189839704137
LG04 241065 85971.834 3.7856677558151963
LG04 241214 85971.834 3.7856677558151963
LG04 241279 85971.834 3.7856677558151963
LG15 2192050 170009.6773 3.785249378892649
LG15 2143940 140078.7005 3.7824406570728875
LG06 2501353 57526.3141 3.7819030725837197
LG05 5379080 55013.6085 3.781808608294994
LG15 3372699 88196.1917 3.7815827762066694
LG10 4488171 87721.0883 3.7808176058821195
LG10 4488235 87702.1195 3.7806325997812675
LG06 2115254 55114.4857 3.7795836984169418
LG15 3345475 58115.8405 3.7791319185258687
LG15 3327087 54835.5696 3.778604121584057
LG17 2572900 32478.2 3.778257823832055
LG04 5049586 57469.1494 3.778224375481977
LG15 2245890 105611.2427 3.7776056441253387
LG04 289746 88587.2383 3.7754280846965695
LG15 2191441 165701.2896 3.7752386459788916
LG06 4938854 96360.9345 3.7750562202814817
LG04 5050005 61510.0799 3.774892153390222
LG15 2594232 78035.1872 3.7743549119110136
LG04 5049659 57631.3068 3.773976801138839
LG04 288662 103449.044 3.7715962284093796
LG15 2142909 140205.6711 3.7699343161271806
LG16 2999667 126544.0611 3.769447123170903
LG16 2999669 126544.0611 3.769447123170903
LG08 3466460 35031.247 3.769213879661032
LG15 3323483 61018.9823 3.7679332222805457
LG10 4537008 92766.18 3.765400103564632
LG10 4488296 87635.7886 3.76535154542747
LG13 2808529 109002.75 3.764235381727405
LG10 4487657 103034.3962 3.76396726589449
LG15 2191874 165742.9457 3.763505724856863
LG15 2191545 165744.5061 3.7611833372781933
LG15 2191564 165744.5061 3.7611833372781933
LG15 2191585 165744.5061 3.7611833372781933
LG15 2191600 165744.5061 3.7611833372781933
LG15 2191605 165744.5061 3.7611833372781933
LG15 2191621 165744.5061 3.7611833372781933
LG15 2191630 165744.5061 3.7611833372781933
LG15 2191661 165744.5061 3.7611833372781933
LG15 2191662 165744.5061 3.7611833372781933
LG15 2191678 165744.5061 3.7611833372781933
LG15 2191705 165742.9457 3.7611752834550662
LG15 2191713 165742.9457 3.7611752834550662
LG15 2191716 165742.9457 3.7611752834550662
LG15 2191719 165742.9457 3.7611752834550662
LG15 2191722 165742.9457 3.7611752834550662
LG15 2191724 165742.9457 3.7611752834550662
LG15 2191731 165742.9457 3.7611752834550662
LG15 2191742 165742.9457 3.7611752834550662
LG15 2191743 165742.9457 3.7611752834550662
LG15 2191776 165742.9457 3.7611752834550662
LG15 2191780 165742.9457 3.7611752834550662
LG15 2191802 165742.9457 3.7611752834550662
LG15 2191803 165742.9457 3.7611752834550662
LG15 2191812 165742.9457 3.7611752834550662
LG15 2191820 165742.9457 3.7611752834550662
LG05 5379290 58118.0417 3.7605777911095957
LG12 1335523 48661.3309 3.7585830574150103
LG08 3466505 35031.5595 3.7585074902468336
LG08 3466506 35031.5595 3.7585074902468336
LG10 4488382 140157.2137 3.758005826946273
LG06 3089694 46979.7753 3.757882790032811
LG05 5379327 58118.0417 3.7571609446521315
LG15 2127999 120803.4073 3.7568461141024336
LG16 3080034 125801.75 3.75633801445425
LG06 3554686 73152.1271 3.754155419287932
LG15 2143417 151941.4279 3.7537998686839176
LG06 2498234 57820.4006 3.7537073715602483
LG15 2245600 105495.066 3.753602410915557
LG15 2128242 120801.1067 3.7519016749700036
LG15 2191523 165744.5061 3.7500568994470473
LG04 264839 109604.6887 3.7495321446660284
LG10 887173 32153.3521 3.748918588191256
LG15 2127527 122567.302 3.7485114012322702
LG06 3090937 58620.1409 3.746456848156737
LG16 3540594 45871.3859 3.746430462486717
LG01 4349237 33677.6283 3.7448380382071984
LG10 2288420 37575.7817 3.744392774940164
LG04 5049795 61549.2513 3.7434370709593963
LG06 4983083 160886.0385 3.74281115407813
LG16 2966920 67501.8233 3.741232697130299
LG12 1298119 40647.9461 3.740478672338392
LG15 2142976 140032.024 3.7399395148850596
LG01 4632602 45234.7351 3.739758330020599
LG16 2967086 67610.5639 3.7380064323681874
LG16 2967087 67610.5639 3.7380064323681874
LG16 2967102 67610.5639 3.7380064323681874
LG12 1073480 62735.7267 3.7359062262460254
LG05 4740908 258172.5111 3.7345523128083595
LG03 4834709 43554.3321 3.7333056682371324
LG17 2569318 29926.9512 3.733293606319301
LG05 4738387 169068.3386 3.7324641188504084
LG05 4326986 42881.2437 3.7311081179570436
LG06 4938812 79102.8978 3.7310193933645794
LG12 1327862 51955.0022 3.724470295537832
LG15 3329920 56224.2839 3.723811241192389
LG12 1327667 52106.0958 3.7237395863232607
LG03 4834326 43552.6893 3.7229560521982537
LG15 3190731 43529.1752 3.721743167259518
LG15 3348978 54941.4875 3.720848339595044
LG15 3332499 58959.4238 3.7192326978561088
LG02 999466 28867.5458 3.718969910111513
LG15 2051809 112027.1931 3.7188198652753344
LG16 3594576 42777.8539 3.7186758889334226
LG02 945100 46775.4167 3.717047908812591
LG16 3594469 42693.6065 3.716989457213963
LG16 3594520 42693.6065 3.716989457213963
LG16 3594538 42693.6065 3.716989457213963
LG08 3466554 35017.8095 3.716895501800703
LG10 4536587 93077.2738 3.714655474483677
LG15 2107803 133940.9213 3.713526967241683
LG08 3466285 34924.7833 3.7119460173874788
LG08 3466296 34922.2 3.7118827382676542
LG10 4464620 92577.9972 3.711354656995925
LG16 2943653 89848.5609 3.7093327630977817
LG08 3466300 34922.2 3.7076496908965875
LG08 3466321 34922.2 3.7076496908965875
LG08 3466322 34922.2 3.7076496908965875
LG16 3588625 42342.3022 3.707039608707108
LG16 3588650 42342.3022 3.707039608707108
LG16 2967465 67646.8139 3.7061080530940185
LG06 1398496 44090.6778 3.7059568193195207
LG12 1818678 30371.9655 3.7056094026609676
LG12 1343035 49264.7172 3.7052227016255115
LG15 3321072 61632.1524 3.7051044075924784
LG06 3554167 73662.493 3.7042609121598025
LG16 3039640 81732.8086 3.7042122226601895
LG16 3039641 81732.8086 3.7042122226601895
LG16 3039649 81732.8086 3.7042122226601895
LG16 3039669 81732.8086 3.7042122226601895
LG16 3039755 81732.8086 3.7042122226601895
LG10 4537000 92781.1744 3.704105301704449
LG04 5051083 57616.1252 3.703208780332654
LG15 3372602 42511.6732 3.702796625371869
LG10 4465591 92386.4089 3.7019614945508237
LG06 5670013 51462.6874 3.7014457469558253
LG15 2244211 104921.1732 3.700167320540841
LG16 2942101 141051.1593 3.7000969594601685
LG09 4093988 53877.1489 3.6988625219857987
LG16 3594614 42625.9179 3.6975879568141394
LG10 2288246 35522.2417 3.697020962484345
LG10 4466869 93231.5707 3.696557377862739
LG10 4136220 31832.3036 3.696133727436735
LG15 2107848 131029.3606 3.694726034309449
LG15 3426794 38624.4808 3.6934620199736563
LG16 2885968 70996.2988 3.6933346259792543
LG10 4432247 112923.0208 3.6928237736646987
LG04 5050711 57449.2145 3.692502383961806
LG04 5050757 57449.2145 3.692502383961806
LG10 4137424 31770.9939 3.692120947886561
LG10 2286634 48401.2509 3.6917451150291343
LG17 2573158 32478.2 3.6916570201725776
LG10 887102 32427.3371 3.6915259426959364
LG15 2052001 112027.1931 3.6913551467938666
LG09 4094905 52617.0494 3.6911083306501102
LG15 3405208 35104.7674 3.6904938767860407
LG15 2052060 136502.5965 3.690031222312686
LG08 3466608 35022.6845 3.6899221937680537
LG12 4761914 45373.7432 3.688942470166786
LG10 4432128 124039.802 3.6888918352953706
LG06 3554366 73176.1463 3.688845665008073
LG06 3554415 73176.1463 3.688845665008073
LG12 1329588 51978.1808 3.6888003653661126
LG15 2051730 112027.1931 3.687881299924077
LG15 2051792 112027.1931 3.687881299924077
LG12 1329535 51913.3674 3.6877329882643033
LG06 3520243 45331.4167 3.684942114315054
LG15 2212434 168950.8335 3.6849269367843425
LG15 2106904 130248.2126 3.6845937110572904
LG10 4432679 124063.3558 3.684073053826599
LG10 4432686 124063.3558 3.684073053826599
LG10 4432737 124063.3558 3.684073053826599
LG09 4092813 53919.1489 3.6840422381751887
LG10 4137401 31770.9939 3.681444535336936
LG16 2967516 76023.7436 3.680837938549091
LG10 4432477 124147.5375 3.6803313053902915
LG10 4464030 91323.9707 3.6800732373511313
LG10 4464104 91323.9707 3.6800732373511313
LG10 4464137 91323.9707 3.6800732373511313
LG17 3795409 30558.6532 3.6799644043224617
LG04 286687 102882.4138 3.679003549976137
LG04 5050878 57449.2145 3.6787689544942728
LG15 2134061 123132.0667 3.678420282007408
LG16 2967748 67641.533 3.6782703246630066
LG16 2967758 67641.533 3.6782703246630066
LG16 2967924 75993.8919 3.6782205706906295
LG04 5049915 57343.1494 3.6780302656389847
LG10 4536709 92903.2738 3.674933883042155
LG10 4536800 92903.2738 3.674933883042155
LG06 5380694 48522.3202 3.674778446324702
LG12 1328627 36783.829 3.673761906053973
LG02 1919513 71236.7659 3.671159623636705
LG15 2108165 133283.3784 3.670211338241785
LG04 5051865 57759.5848 3.667993511236013
LG12 1335831 47774.8914 3.6678610171807327
LG04 240017 122933.3346 3.6677677111203675
LG15 3374819 57000.4766 3.6675284195533755
LG15 3374930 56994.8993 3.667444710966559
LG15 3375018 56994.8993 3.667444710966559
LG15 3375075 56994.8993 3.667444710966559
LG15 3375122 56994.8993 3.667444710966559
LG13 2802634 92819.6528 3.667282364564117
LG16 3049027 81416.391 3.6661367387566295
LG16 2967557 67669.3806 3.665482736949315
LG16 2967600 67669.3806 3.665308635268005
LG16 2967638 67669.3806 3.665308635268005
LG15 2108116 133283.3784 3.6645461083577677
LG16 3016998 121106.7654 3.6645321660294257
LG16 2925175 90119.6245 3.664422620156265
LG16 2967916 67641.5726 3.6642705446550394
LG10 4466156 93231.5707 3.6634098785266844
LG15 3405153 35104.7674 3.6633104288421903
LG16 2967710 71114.2233 3.663196993652544
LG16 2925417 90342.8407 3.663168227708986
LG15 2244826 104872.4438 3.662849044405573
LG16 3035441 89799.5222 3.6628220189535394
LG10 4465140 92577.9972 3.6621672322747707
LG16 3522595 38624.0183 3.660323117005662
LG15 2052612 112051.0121 3.6595281709668885
LG16 3039637 99243.839 3.6571743479274472
LG04 5050024 57310.7266 3.656776360341917
LG04 5050069 57310.7266 3.656776360341917
LG10 4471377 91625.6521 3.656551576746078
LG15 3426966 52602.5506 3.6559236909803787
LG06 4939473 81044.3486 3.652931592363313
LG16 3594357 44148.1571 3.6524384294131167
LG17 2602380 34252.1083 3.6511004598682435
LG16 3061950 124593.7185 3.6509881020364165
LG01 4349199 25903.1477 3.6509473331669775
LG04 288573 88629.8026 3.650346801109851
LG04 288589 88629.8026 3.650346801109851
LG06 3554926 73287.5732 3.6490433356835292
LG12 1074438 62824.0554 3.6461946078442025
LG15 3373885 57154.6273 3.6461648535809696
LG04 287097 99430.8317 3.6453450329819685
LG15 1380909 124801.625 3.6442363192758327
LG06 5670058 54827.5636 3.6439589684616878
LG06 5670061 54827.5636 3.6439589684616878
LG06 5670064 54827.5636 3.6439589684616878
LG06 5670068 54827.5636 3.6439589684616878
LG06 5670069 54827.5636 3.6439589684616878
LG12 1073437 62732.609 3.6437117458953336
LG12 1073438 62732.609 3.6437117458953336
LG12 1073439 62732.609 3.6437117458953336
LG15 2108144 133283.3784 3.6429733093069228
LG01 4638616 55809.7014 3.642729923490743
LG02 950950 47006.2788 3.642678030139625
LG02 950955 47006.2788 3.642678030139625
LG02 950966 47006.2788 3.642678030139625
LG02 950859 46905.1677 3.6408359279777627
LG02 950921 46905.1677 3.6408359279777627
LG04 288747 88736.8853 3.640364587406022
LG02 944286 48420.8333 3.6400546612394518
LG12 1327345 52022.9769 3.6392714578288845
LG15 3339312 58728.1321 3.6390726098570036
LG01 5787558 119386.4062 3.6386708825469984
LG16 2967110 67643.1949 3.6383000346098804
LG05 5378418 57494.544 3.6380637644701155
LG16 3588321 42382.3791 3.6369934556271293
LG04 240794 85454.0273 3.636485042480806
LG10 4471320 91625.6521 3.6363337793800423
LG06 6354188 69583.4333 3.6361352720633198
LG12 1073443 62732.9031 3.6354811177183346
LG12 1073453 62732.9031 3.6354811177183346
LG17 3794771 37775.2817 3.6354753675187417
LG15 2129786 122068.0331 3.6353831699742494
LG15 2129821 122068.0331 3.6353831699742494
LG16 2923804 99007.255 3.635115502404314
LG12 1074253 62693.3162 3.6344140397295033
LG10 2286999 36474.8137 3.63352215344826
LG10 2286972 36474.5065 3.633514948461262
LG15 2308023 72511.0917 3.6332728248596333
LG16 2989101 66772.7881 3.6327220476328783
LG01 4650421 36547.7913 3.6307900024544284
LG05 4740506 263789.75 3.630183915157541
LG10 4497575 85092.2363 3.629840459083189
LG16 3039873 81732.8086 3.6297711912406383
LG16 2967224 67643.1949 3.629683267260275
LG16 3039853 81708.9899 3.6295218534171365
LG16 3039854 81708.9899 3.6295218534171365
LG15 2108137 131023.9856 3.6283472848528486
LG15 2108138 131023.9856 3.6283472848528486
LG15 3066862 65815.0032 3.627806915280543
LG15 3066893 65815.0032 3.627806915280543
LG15 3066909 65815.0032 3.627806915280543
LG15 3066925 65815.0032 3.627806915280543
LG16 2943797 89848.5609 3.627246536858638
LG16 2925316 90217.7762 3.627080622144334
LG10 261873 37474.7136 3.625821954655134
LG10 4125763 32710.1848 3.6250929318873677
LG10 4465439 92386.4089 3.62506641701493
LG16 3080369 55542.1284 3.624167765329594
LG16 2940803 190130.2673 3.623972675368256
LG16 3593738 42662.0133 3.6232450347307044
LG15 2052571 104312.2557 3.623077797599607
LG04 5175542 117641.2946 3.6224418579618574
LG10 2288163 35533.5359 3.62206847613757
LG16 2967592 67669.3806 3.6206850513807107
LG16 2923347 97465.3466 3.6203381392069405
LG15 2208695 169020.8333 3.6186285599377306
LG15 2208720 169020.8333 3.6186285599377306
LG15 2208752 169020.8333 3.6186285599377306
LG15 2208777 169020.8333 3.6186285599377306
LG06 2501341 60935.2083 3.617079937213296
LG06 2501460 60935.2083 3.617079937213296
LG06 2501512 60935.2083 3.617079937213296
LG16 3049129 81516.0778 3.616543606665887
LG16 3049136 81516.0778 3.616543606665887
LG16 3049260 81516.0778 3.616543606665887
LG16 3049262 81516.0778 3.616543606665887
LG16 3031866 81459.9464 3.6160377645873707
LG12 1074412 62698.8456 3.6160269418707682
LG15 2246342 105588.093 3.615800603806124
LG05 4732189 166514.9132 3.6148942699533313
LG16 2923875 189962.2464 3.61476922598817
LG15 2212288 168951.7763 3.614746330901547
LG15 3427160 58930.371 3.6140776115261057
LG16 2925121 189678.72 3.6131342375118836
LG15 3350009 30332.2312 3.6131292416744376
LG06 6354199 69583.4333 3.6129579427923955
LG15 2306992 59052.4525 3.612898008060163
LG11 3657723 50551.2798 3.6122519326681752
LG16 2967340 67643.1949 3.612182459668535
LG16 2967344 67643.1949 3.612182459668535
LG15 3418433 36309.4027 3.611889043282128
LG15 3325896 36066.3071 3.611288586955869
LG09 4098438 53235.4383 3.611254577172503
LG10 4446979 87752.549 3.610004485929821
LG11 853812 35541.3326 3.609411369485718
LG10 4497182 85092.2363 3.6091370385674035
LG10 4449504 132735.7857 3.6090862933788457
LG06 6354535 69237.6964 3.6086968175755554
LG06 6354498 69231.1714 3.608616194081737
LG15 2327563 55511.2102 3.607748142390471
LG16 3588446 42387.9176 3.6070453238473354
LG05 5379006 54973.6211 3.6066956115090645
LG04 5052060 57767.0333 3.606343871795825
LG15 2162260 155411.1064 3.6060954114590076
LG16 2923632 89904.3548 3.6053957713759486
LG04 5050125 137927.5988 3.6051760372164523
LG16 3039804 81570.1159 3.6048391736405767
LG12 1064173 62590.51 3.6044494418013513
LG15 2327677 55511.2102 3.6044234636151113
LG04 266242 87328.7334 3.6019789613087116
LG15 3332450 35144.4838 3.60018167666419
LG16 3052737 81315.6932 3.5999767099424003
LG16 2989601 66661.6645 3.5998620331534856
LG16 3594176 42881.3527 3.5991373271413
LG15 2208273 169020.8333 3.599008918099061
LG15 2208364 169020.8333 3.599008918099061
LG15 2208409 169020.8333 3.599008918099061
LG15 2208417 169020.8333 3.599008918099061
LG15 2208424 169020.8333 3.599008918099061
LG15 2208451 169020.8333 3.599008918099061
LG15 2208462 169020.8333 3.599008918099061
LG15 2208464 169020.8333 3.599008918099061
LG15 2208507 169020.8333 3.599008918099061
LG15 2208629 169020.8333 3.599008918099061
LG15 2208641 169020.8333 3.599008918099061
LG15 2208653 169020.8333 3.599008918099061
LG15 2208656 169020.8333 3.599008918099061
LG15 2208664 169020.8333 3.599008918099061
LG01 1212563 33748.5 3.598314920773987
LG15 3149757 36035.089 3.598089680616821
LG06 3089564 47044.63 3.597339687982835
LG15 2208622 168496.6799 3.596351892839949
LG15 2108459 130478.8441 3.595906059838742
LG16 2943372 190130.2673 3.595876383045875
LG05 5378768 58400.8865 3.5955220712823484
LG06 3521013 41236.4381 3.595432256056772
LG06 3116470 42293.5245 3.5953733658855236
LG16 2943900 97236.0841 3.595323468845882
LG15 3324739 38953.1586 3.595311429027592
LG01 4632043 45275.9018 3.5951268911813727
LG15 2207899 169020.8333 3.594987527679886
LG10 653798 46804.6116 3.5947838381421615
LG16 2967103 71088.1935 3.5945715064988657
LG04 329332 90993.0 3.594351536954385
LG15 2207814 168871.7167 3.59423246910533
LG15 2208157 168781.2318 3.593773969660757
LG15 2208178 168781.2318 3.593773969660757
LG15 2208183 168781.2318 3.593773969660757
LG15 2208051 168734.7423 3.593538305367553
LG15 2208062 168731.2735 3.593520718744481
LG15 2208065 168731.2735 3.593520718744481
LG15 2208066 168731.2735 3.593520718744481
LG17 3794936 26749.7158 3.592840291758473
LG10 4143812 29704.724 3.5922998653029805
LG10 4465286 103362.6154 3.5919252056895132
LG16 2923604 89906.7666 3.59074364864833
LG04 5053140 55053.2266 3.589995750823571
LG15 2327659 54500.9157 3.588710689030973
LG15 2162167 156604.2853 3.588574216515645
LG02 950523 47639.3833 3.5881941922287957
LG12 1063988 64346.2564 3.588000149481639
LG01 4631861 42871.1722 3.587900248544184
LG01 4631915 42871.1722 3.587900248544184
LG15 3427906 38852.2442 3.585844861101405
LG15 2159572 155472.5626 3.5847828843498477
LG15 3427777 38840.4611 3.583859682082559
LG09 164340 41989.3535 3.5837913042369847
LG05 5378623 55078.8621 3.5836692870728974
LG05 5378659 55078.8621 3.5836692870728974
LG15 3426338 52690.6839 3.58302228770927
LG04 286971 88125.2604 3.5825752305875627
LG16 3594312 42880.1604 3.582550196063136
LG09 1786182 83115.925 3.580238328511157
LG16 2944040 89834.0317 3.580032928324361
LG17 3784502 30030.6846 3.579164571282526
LG10 4465657 103362.6154 3.5786543772700723
LG15 2307706 60707.5052 3.5780480538430397
LG10 4481460 90778.8261 3.5778916971722974
LG10 4433178 118744.9856 3.577847060967635
LG06 6354519 37165.7694 3.577112134959365
LG03 2718299 103647.327 3.5761198921735415
LG16 3539490 66440.7111 3.575942077018585
LG02 1032677 32630.746 3.575811362460974
LG17 2572951 32478.2 3.5755544915136825
LG15 2211052 169048.4333 3.575133479486325
LG15 2211055 169048.4333 3.575133479486325
LG15 2211155 169048.4333 3.575133479486325
LG12 1064152 62590.51 3.5751331129501804
LG12 1064178 62590.51 3.5751331129501804
LG10 4481720 90778.8261 3.575119081292988
LG10 4481728 90778.8261 3.575119081292988
LG05 5378426 55078.8621 3.5749437814021316
LG15 2211163 168938.916 3.574579089295298
LG15 2211167 168938.916 3.574579089295298
LG15 2211342 168938.916 3.574579089295298
LG05 4740531 263789.75 3.574445789163697
LG12 1073418 62778.7051 3.5725771678865477
LG12 1073441 62778.7051 3.5725771678865477
LG12 1073461 62778.7051 3.5725771678865477
LG12 1073468 62778.7051 3.5725771678865477
LG17 2554121 32880.4357 3.572514294959891
LG17 2554135 32880.4357 3.572514294959891
LG06 2115008 52137.1202 3.572085680520057
LG15 3336115 58728.1321 3.5718782608350725
LG10 4136191 34902.8909 3.5711015246216236
LG01 4815051 33997.6468 3.570371147140031
LG10 4481857 92339.1531 3.570356960472319
LG16 3016280 95363.2776 3.569716311190609
LG16 3016314 95363.2776 3.569716311190609
LG16 3035484 82236.8887 3.569596989746279
LG16 3035545 82236.8887 3.569596989746279
LG16 2923384 91724.9975 3.5684096242310566
LG10 4536479 93205.4466 3.568388973235389
LG16 2993631 171653.125 3.5674128736627253
LG17 2573056 32478.2 3.5667484533641227
LG16 2940708 98594.3179 3.5664050840366297
LG16 2989050 66829.1727 3.5661525032334556
LG15 2246370 105588.093 3.5649936354148193
LG12 1064021 62608.2747 3.564576348720736
LG16 585461 41156.4595 3.5643237523049467
LG04 5053291 55051.5933 3.5641889397528166
LG12 1073411 62778.7051 3.563298969030403
LG12 1073413 62778.7051 3.563298969030403
LG12 1073546 62778.7051 3.563298969030403
LG12 1073559 62778.7051 3.563298969030403
LG16 2989645 66661.6645 3.563139085408455
LG06 2988620 63205.4857 3.563113815967947
LG10 4481885 90797.4687 3.562981022969216
LG12 1063974 62469.1571 3.5626733585733867
LG10 4463824 91251.0295 3.5622570225053782
LG15 2126724 153054.1249 3.5610476105418893
LG01 4352373 27379.884 3.5604617375486103
LG15 2051636 136938.7184 3.5603923543448217
LG15 2129887 157616.8091 3.56035004045042
LG10 4138305 37350.4643 3.560307505409254
LG16 3002928 96048.1899 3.5602360045219887
LG10 4496684 85067.9242 3.5598708037746953
LG04 289658 88587.2383 3.559667589768649
LG15 3327438 35945.5241 3.559538404603248
LG08 3337246 32294.7834 3.5592675037610277
LG17 2620753 28039.05 3.5589083788778693
LG15 2535618 79796.4649 3.5588296592171664
LG16 2923325 90304.8022 3.5585717325495163
LG18 1344440 77975.3333 3.5584616884954485
LG06 5392372 133836.3047 3.5581607061024467
LG06 5392518 133836.3047 3.5581607061024467
LG06 5392554 133836.3047 3.5581607061024467
LG06 5392593 133836.3047 3.5581607061024467
LG06 5392629 133836.3047 3.5581607061024467
LG06 5392646 133836.3047 3.5581607061024467
LG16 2967198 67643.1949 3.557710863257763
LG16 2989209 66787.2689 3.5574094522608553
LG16 2989246 66787.2689 3.5574094522608553
LG16 2924550 96964.149 3.55729943244747
LG16 2989130 66311.689 3.556674585133489
LG16 2989132 66311.689 3.556674585133489
LG12 1327122 36641.6141 3.5561477547415605
LG06 4939320 81890.8262 3.555473661963179
LG15 2207769 168862.8344 3.554215948850798
LG15 2207784 168855.4667 3.5541786229259564
LG15 2327623 54500.9157 3.5531629725507865
LG06 1401348 45091.2926 3.552939028683433
LG15 2207798 168530.4624 3.5528753886974003
LG06 1401196 45326.0765 3.5520011155334776
LG06 1401198 45326.0765 3.5520011155334776
LG16 2923421 89966.5717 3.551850549328184
LG15 2127192 122567.302 3.5513801546926738
LG03 4834358 35435.2012 3.551211283359735
LG04 266249 87108.4429 3.5505000568290814
LG04 266266 87108.4429 3.5505000568290814
LG04 266215 87108.3041 3.550498693713114
LG06 3090373 48419.4854 3.5496937104870963
LG06 3090415 48419.4854 3.5496937104870963
LG16 2925163 90342.8407 3.547799215265962
LG16 2925194 90284.4176 3.547245821118466
LG16 2942379 190130.2673 3.546645459746885
LG12 1074213 72301.4747 3.546577411547922
LG04 286746 88125.2604 3.546553732844416
LG15 2051191 104768.6877 3.5462488521442044
LG10 4496833 85067.9242 3.5454736470972996
LG15 3375550 42652.2431 3.5443725754661157
LG17 2569129 29926.9512 3.544215223662272
LG15 2127351 122567.302 3.543922128688173
LG15 3418663 37115.7293 3.5436659796012884
LG10 4496589 85067.9242 3.5433593322760353
LG10 4496595 85067.9242 3.5433593322760353
LG10 4496609 85067.9242 3.5433593322760353
LG15 2211519 168938.916 3.5427261074540595
LG16 2924608 112827.5619 3.5422049439947485
LG15 3397890 42951.9167 3.541602011049089
LG15 2109516 130627.0794 3.5409941625671375
LG16 2924507 129660.2741 3.5389794307958833
LG15 2159286 164927.8542 3.5386525394307644
LG10 4465056 92577.9972 3.538595136740248
LG04 5050923 138003.3488 3.538029320683866
LG16 2989513 66715.7469 3.5374252851173686
LG16 2989515 66715.7469 3.5374252851173686
LG10 4481920 90797.4687 3.5370683657095405
LG12 1490160 35669.1571 3.5363442008917683
LG05 4740996 199279.5637 3.5358722085773584
LG05 4740999 199279.5637 3.5358722085773584
LG05 4740762 199354.8668 3.5358447356497336
LG10 4601810 53596.0625 3.534421803911101
LG10 4464824 92577.9972 3.533167369418967
LG15 2307139 59108.4192 3.5327775684296654
LG16 3035648 81911.2962 3.5326271110147216
LG08 686811 28915.7028 3.5321005957559164
LG15 2137062 125262.5504 3.5317940547285804
LG10 4481499 90778.8261 3.531551121787643
LG16 3015755 64957.3026 3.5311267497824
LG16 2989565 66630.2005 3.5302422437670975
LG15 3066817 58658.1811 3.5293249004257765
LG10 4450239 89264.3455 3.529064198342684
LG10 4463006 91324.6471 3.5280417910534987
LG06 1801301 29967.8476 3.5260884515238047
LG06 5380552 48463.55 3.5254350701455737
LG06 5380564 48463.55 3.5254350701455737
LG06 5380566 48463.55 3.5254350701455737
LG06 5380571 48463.55 3.5254350701455737
LG10 4550317 125834.7118 3.5253090631886908
LG15 2130087 122154.5625 3.525251478380825
LG03 2718411 103457.8758 3.5248595461184427
LG10 4496886 85067.9242 3.5242593752072247
LG06 4938748 75086.11 3.5240617684819484
LG12 1297933 40774.9755 3.5240598850462828
LG12 1298020 40774.9755 3.5240598850462828
LG12 1298051 40774.9755 3.5240598850462828
LG10 4496889 85029.0418 3.523868273471573
LG09 4434004 25623.6601 3.5226921147242813
LG16 2943717 89848.5609 3.5212273651524484
LG04 5052495 61681.8985 3.520412854510313
LG16 3080611 39112.8019 3.5203126137736023
LG11 3662598 52358.17 3.519755743951074
LG15 3401909 42669.6167 3.5196989062924655
LG06 2501564 43133.8196 3.5188496867262864
LG15 2129548 122074.9155 3.5183272973267377
LG10 4465051 92577.9972 3.516801291481451
LG15 2306825 59500.7224 3.5147969762660884
LG15 2306850 59500.7224 3.5147969762660884
LG15 2594507 78076.871 3.514750006555166
LG16 3593900 42932.018 3.514623341113004
LG15 3067205 57640.8902 3.514358642381377
LG15 3067220 57640.8902 3.514358642381377
LG16 3065037 95688.579 3.5127889727433854
LG15 3340177 29780.436 3.5113770630923242
LG15 2159219 164919.5685 3.511035731974988
LG15 2159225 164919.5685 3.511035731974988
LG15 2159227 164919.5685 3.511035731974988
LG10 4549884 102971.3681 3.5109667900270534
LG10 4498894 110946.5085 3.510513856995743
LG04 5174846 96672.576 3.51041184713404
LG15 2133854 149886.2234 3.5101708772876807
LG16 3595543 47740.8563 3.5095196931654877
LG01 4631786 55682.4931 3.5095043783615627
LG16 2925252 90284.4176 3.509221116559665
LG16 2925255 90284.4176 3.509221116559665
LG16 2925261 90284.4176 3.509221116559665
LG16 2925296 90284.4176 3.509221116559665
LG16 2989134 66311.689 3.5087081274800416
LG16 2968204 67605.4205 3.506851659347533
LG16 2968018 67605.333 3.5068505521373816
LG15 2049966 103712.4886 3.506730906744033
LG04 289416 88587.2383 3.5067287550755992
LG04 289497 88587.2383 3.5067287550755992
