expected: 101 candidates: 101
LG10 4431412 130420.313 4.934341327203241
LG10 4431423 130420.313 4.934341327203241
LG10 4431868 143937.6176 4.912143582803726
LG10 4431460 130453.896 4.832154708994085
LG10 4431461 130453.896 4.832154708994085
LG15 2241709 171159.3159 4.744127318306116
LG10 4431545 130261.1669 4.7350232126499145
LG15 2246418 106403.9028 4.598543143854875
LG15 2246378 105570.225 4.591814138741919
LG15 2246408 105568.9942 4.591804165144923
LG05 4740510 201438.8278 4.590148312078859
LG15 2246376 105570.225 4.5833228342017724
LG10 4431598 130585.7036 4.533889079139163
LG10 4431610 130484.15 4.533223542669103
LG10 4431502 130543.0967 4.529388942698346
LG15 2107665 130940.055 4.506801697562171
LG10 4431667 112881.9505 4.475097368123853
LG10 4431681 112766.8462 4.474224614214157
LG10 4431774 112766.7302 4.468523456724058
LG15 2246290 105326.7127 4.427686392235258
LG10 4431738 112766.8462 4.425337603515512
LG10 4431739 112766.8462 4.425337603515512
LG15 2110303 130741.5434 4.4135364851042675
LG15 2110305 130741.5434 4.4135364851042675
LG15 2110221 130741.5434 4.40933863308842
LG15 2110237 130741.5434 4.40933863308842
LG05 4732186 195378.1639 4.406656514169319
LG15 2110056 130741.5434 4.406071931828563
LG15 2110058 130741.5434 4.406071931828563
LG15 2110066 130741.5434 4.406071931828563
LG15 2110067 130741.5434 4.406071931828563
LG15 2110074 130741.5434 4.406071931828563
LG15 2110075 130741.5434 4.406071931828563
LG15 2110076 130741.5434 4.406071931828563
LG15 2110147 130741.5434 4.406071931828563
LG15 2110151 130741.5434 4.406071931828563
LG15 2110345 130741.1676 4.406069472893634
LG15 2143611 140009.5534 4.392407253753777
LG15 2593336 78013.9835 4.376704677632596
LG15 2105771 129863.4829 4.372718530414762
LG10 4466862 93231.5707 4.363003275728114
LG15 2105597 126484.5161 4.356827427806596
LG15 2245237 105445.0992 4.355017531972037
LG15 2246286 105611.4988 4.350074761398523
LG05 4732097 166273.6779 4.349266921074498
LG05 4731992 166269.4557 4.349245197861737
LG15 3371635 88196.1917 4.347808168210924
LG05 4737338 194728.6897 4.346193916845301
LG15 2242006 169212.4625 4.33486505192147
LG05 4732524 166514.9132 4.3233679933754905
LG15 2143342 139954.2593 4.322277847101989
LG15 2245411 128867.3986 4.321812232254522
LG04 290121 117055.8249 4.315216810307183
LG15 2246160 105417.7779 4.308853321307296
LG15 2246188 105417.7779 4.308853321307296
LG15 2051846 110475.5598 4.291827977933023
LG15 2593371 78013.9835 4.291171123060784
LG15 2107551 130940.055 4.278428442454908
LG15 2051808 104267.2281 4.27473237605253
LG15 2245796 105422.5939 4.268026255571986
LG15 2245480 105493.4778 4.267620666176123
LG15 2245521 105493.4778 4.267620666176123
LG05 4733622 195024.2961 4.264611244520238
LG15 2128575 120705.0975 4.263323034658214
LG15 2246281 105611.4988 4.26177305575183
LG12 1328057 51993.1413 4.260977752897365
LG15 2244933 128213.5316 4.258142318519848
LG15 2593495 78031.5558 4.255344912801056
LG15 2051810 104275.3789 4.254417190960857
LG04 4850521 95973.3429 4.254252900698916
LG15 2143015 140032.024 4.251708280990539
LG15 2143317 140032.024 4.251708280990539
LG15 2246279 105535.8534 4.250275043338316
LG15 2128486 120613.103 4.246205592376411
LG15 2245279 105445.0992 4.246022792231989
LG12 1817960 42404.7793 4.24368146234316
LG05 4737150 162476.1631 4.235381351536472
LG05 4740386 167161.4572 4.233362806931736
LG15 2127810 147671.7924 4.230160861346799
LG15 2243618 104977.6716 4.2180526012353505
LG15 2245768 105422.5939 4.217867715413996
LG15 2051791 104270.5811 4.215937216467968
LG10 4516919 87948.4778 4.212010084532322
LG05 4736619 162375.9279 4.203691243764572
LG05 4740197 167210.6842 4.199224871542532
LG05 4736789 167469.3475 4.198630125749881
LG15 2245915 105418.0613 4.192113085360244
LG15 2245940 105418.0613 4.192113085360244
LG05 4739656 167233.6253 4.189827673930942
LG05 4739760 167233.6253 4.189827673930942
LG03 2770086 120405.931 4.186957692911695
LG12 3457792 116453.6667 4.175588792011123
LG12 3457757 116435.1136 4.175452490346703
LG15 2107058 130248.2126 4.171921894840124
LG15 2107071 130248.2126 4.171921894840124
LG15 2107213 132507.3402 4.170011276002068
LG15 2052562 104312.2557 4.168863615113349
LG15 2128370 120613.103 4.16035361206472
LG04 289798 88587.2383 4.151033248986638
LG12 1336097 47768.754 4.149917486454187
LG06 5493004 61469.9903 4.146192553963179
