3897604 3160752
0 8904929 11770684
1 1363864 1859965
2 671012 937452
3 539616 723657
4 487626 656222
5 491434 640715
6 508674 645772
7 542026 665638
8 585828 715172
9 639269 761128
10 707620 820295
11 787515 891069
12 876900 968637
13 986116 1053093
14 1106756 1147961
15 1240129 1232541
16 1372338 1319245
17 1499283 1401919
18 1618649 1475426
19 1723445 1540693
20 1812075 1585326
21 1879410 1622898
22 1931829 1652523
23 1961835 1668006
24 1972628 1669852
25 1970971 1664219
26 1952395 1661653
27 1937170 1658472
28 1921641 1665390
29 1911122 1674862
30 1915146 1689772
31 1922432 1717219
32 1949715 1748465
33 1994907 1798015
34 2054114 1850728
35 2121847 1900523
36 2196524 1956015
37 2276314 2021109
38 2359115 2078603
39 2448716 2125425
40 2545969 2170086
41 2623704 2208331
42 2694161 2240797
43 2757290 2259650
44 2810908 2281362
45 2848416 2283236
46 2880203 2285101
47 2890456 2276144
48 2889542 2260924
49 2878675 2237617
50 2864411 2207456
51 2843604 2179688
52 2815202 2145579
53 2784010 2119978
54 2754055 2096049
55 2730264 2079018
56 2706934 2064428
57 2691748 2055111
58 2687349 2054895
59 2691454 2060244
60 2707897 2078283
61 2736313 2099937
62 2783167 2127306
63 2839045 2167353
64 2905971 2205509
65 2984711 2253336
66 3069153 2301060
67 3157515 2360378
68 3247948 2423861
69 3343018 2481430
70 3443868 2541124
71 3544837 2590027
72 3646442 2646123
73 3729238 2694253
74 3809887 2729170
75 3876201 2765062
76 3932859 2788651
77 3969571 2801911
78 3991848 2805323
79 4011308 2803598
80 4007215 2793783
81 3989850 2767399
82 3957345 2731734
83 3911671 2685506
84 3846538 2634205
85 3774052 2572929
86 3689070 2504260
87 3591421 2437004
88 3482627 2355659
89 3368131 2269917
90 3240506 2186173
91 3109174 2093964
92 2967937 2003608
93 2826361 1910523
94 2683997 1819566
95 2542221 1731439
96 2398836 1639036
97 2264568 1550073
98 2132872 1462287
99 2000214 1379420
100 1871731 1302003
101 1746421 1230028
102 1625962 1160893
103 1512213 1094434
104 1412283 1032615
105 1311093 973439
106 1223928 915977
107 1140717 863446
108 1064110 817386
109 992815 772919
110 931838 735806
111 870369 698627
112 816538 664601
113 770946 635802
114 726936 607804
115 689924 585478
116 658296 564060
117 630853 546692
118 606409 529615
119 586557 514957
120 568194 501623
121 552782 487999
122 533999 478867
123 524129 469196
124 512750 458824
125 502434 452093
126 495145 442978
127 486903 435782
128 479420 430322
129 474795 424168
130 469066 415970
131 463473 408175
132 456890 402500
133 450485 395298
134 441583 387200
135 435193 378546
136 426260 372528
137 420598 363149
138 411463 355530
139 402028 348317
140 392884 338459
141 384616 331626
142 375950 322514
143 365467 313094
144 355970 304028
145 345392 296381
146 335054 287959
147 325009 278625
148 315078 270740
149 305752 262469
150 296461 254463
151 286234 246322
152 275694 238492
153 266691 229756
154 257013 223974
155 249528 217232
156 239532 209235
157 232314 203437
158 223340 196965
159 215596 190446
160 206714 184542
161 198898 177181
162 191674 172745
163 185581 165968
164 177910 161325
165 171748 156586
166 165642 150751
167 159922 146283
168 153409 142520
169 147488 137231
170 141017 131878
171 135582 127352
172 129808 123052
173 124752 119275
174 119079 115342
175 114471 111983
176 109922 107902
177 104213 103822
178 99535 100587
179 94669 95817
180 90648 93255
181 86353 89854
182 82702 86678
183 78537 83709
184 74635 80501
185 70911 76751
186 67528 74828
187 64686 71285
188 61214 68192
189 57429 66035
190 55381 63563
191 51805 61388
192 49271 59082
193 46654 56758
194 44128 55526
195 42239 53205
196 39865 51428
197 37037 50017
198 35196 48654
199 32979 47039
200 31534 46170
201 29790 45246
202 27885 43967
203 26467 43140
204 25009 41891
205 23960 41725
206 23127 40358
207 21832 39930
208 21285 38375
209 20499 37743
210 19439 36902
211 18501 36474
212 18301 35968
213 17769 35773
214 16958 34918
215 16690 34460
216 16364 34529
217 16184 34162
218 16105 34286
219 15903 34175
220 16123 33820
221 16098 33959
222 16077 34156
223 16067 33709
224 16223 33848
225 16720 34173
226 16785 34177
227 17223 34955
228 17533 35709
229 18135 36003
230 18694 37152
231 18765 38646
232 19389 40079
233 20589 41481
234 21713 43584
235 23023 46269
236 24687 49252
237 26879 53769
238 29503 58843
239 33049 65218
240 36690 73297
241 41086 83688
242 47416 95464
243 53150 109285
244 59612 125359
245 64778 142758
246 65895 160287
247 61829 181675
248 48013 177124
249 13419 34112
250 3759 14607
251 1367 8608
252 703 6071
253 452 4539
254 375 3952
255 297 3439
256 217 3089
257 195 2753
258 198 2671
259 172 2462
260 159 2387
261 155 2156
262 134 2038
263 123 1971
264 111 1947
265 118 1743
266 110 1735
267 120 1600
268 111 1532
269 92 1460
270 86 1396
271 103 1369
272 68 1281
273 57 1295
274 52 1252
275 57 1183
276 53 1133
277 44 1094
278 34 1118
279 51 1059
280 41 1006
281 45 969
282 44 948
283 39 912
284 44 928
285 27 891
286 24 857
287 21 824
288 24 803
289 22 753
290 20 696
291 15 699
292 19 706
293 22 695
294 13 612
295 16 565
296 20 583
297 13 589
298 8 505
299 7 516
300 6 458
301 6 478
302 2 453
303 2 392
304 2 411
305 2 402
306 0 431
307 2 387
308 2 358
309 3 354
310 6 348
311 3 350
312 2 347
313 1 331
314 1 306
315 4 264
316 2 276
317 2 264
318 1 257
319 3 251
320 1 218
321 0 226
322 0 214
323 0 211
324 0 213
325 0 211
326 0 199
327 0 181
328 0 167
329 0 193
330 0 158
331 0 157
332 0 150
333 0 126
334 0 111
335 0 103
336 0 92
337 0 78
338 0 86
339 0 73
340 0 68
341 0 70
342 0 55
343 0 55
344 0 55
345 0 48
346 0 50
347 0 43
348 0 43
349 0 39
350 0 32
351 0 39
352 0 28
353 0 30
354 0 28
355 0 20
356 0 22
357 0 21
358 0 19
359 0 13
360 0 10
361 0 8
362 0 7
363 0 8
364 0 10
365 0 7
366 0 4
367 0 3
369 0 1
370 0 1
371 0 1
372 0 2
