4053250 3521204
0 9064384 10170332
1 1717032 2014742
2 828476 1059217
3 610243 820004
4 547911 745668
5 537354 733634
6 556241 765476
7 586548 803260
8 634705 869548
9 694681 934813
10 764982 1007831
11 849270 1095272
12 948723 1182982
13 1050612 1280734
14 1167145 1388194
15 1290894 1493347
16 1424657 1600148
17 1561340 1695142
18 1693509 1772434
19 1810454 1837871
20 1904154 1901347
21 1977354 1936239
22 2036226 1960056
23 2062682 1967240
24 2077667 1968044
25 2077940 1963198
26 2070567 1959401
27 2047345 1957805
28 2027700 1965312
29 2018761 1981575
30 2021138 2000262
31 2029717 2028963
32 2053568 2064334
33 2086289 2113058
34 2143466 2168246
35 2203222 2225255
36 2284849 2284716
37 2367461 2348090
38 2460753 2401773
39 2545004 2448486
40 2629718 2496695
41 2708083 2536315
42 2775815 2573616
43 2849219 2598633
44 2900397 2606254
45 2941927 2603761
46 2969853 2599102
47 2983890 2583077
48 2978163 2569654
49 2968990 2538886
50 2952893 2502505
51 2922257 2471093
52 2890746 2434776
53 2857398 2399982
54 2823235 2370259
55 2790381 2346006
56 2766034 2326825
57 2748971 2319204
58 2735896 2315444
59 2736676 2325014
60 2751570 2339631
61 2779644 2364702
62 2822567 2400519
63 2875102 2444531
64 2943308 2495718
65 3018396 2546614
66 3107356 2608023
67 3199812 2673751
68 3297108 2738085
69 3404444 2802071
70 3514540 2865770
71 3622135 2926819
72 3720372 2977878
73 3814139 3031074
74 3904325 3077617
75 3983449 3109606
76 4051182 3134173
77 4107586 3149642
78 4147635 3150111
79 4164005 3142354
80 4173548 3127317
81 4161613 3098780
82 4136211 3058968
83 4094675 3010248
84 4035872 2951081
85 3965289 2886044
86 3885877 2809730
87 3783079 2723520
88 3674030 2633705
89 3551720 2538517
90 3421588 2440233
91 3280657 2341732
92 3139042 2237059
93 2998708 2133289
94 2851248 2027206
95 2701686 1921228
96 2554017 1818672
97 2409345 1722508
98 2264199 1626443
99 2127731 1533038
100 1994283 1442250
101 1862035 1362022
102 1739330 1282110
103 1623311 1203708
104 1515615 1131617
105 1409835 1064777
106 1309583 1001019
107 1219078 943922
108 1130973 893565
109 1053078 847547
110 982482 804841
111 917072 767081
112 858258 729570
113 804943 697601
114 759641 667006
115 716129 641183
116 681043 617323
117 647520 597044
118 619683 575869
119 595845 557118
120 575802 539685
121 560516 525316
122 543479 513698
123 530357 501927
124 521288 492965
125 511108 481765
126 501846 473577
127 494392 467077
128 486565 456531
129 480943 448644
130 473212 440763
131 467134 430831
132 460851 424278
133 454315 416886
134 447175 409876
135 440186 400482
136 433333 392766
137 425597 382576
138 418357 374781
139 409066 365516
140 402469 356287
141 392095 348238
142 383217 340023
143 375316 328273
144 365366 320296
145 355209 312637
146 344735 302320
147 333857 292638
148 324784 284730
149 313398 275642
150 302240 266686
151 292687 257236
152 282086 248228
153 272418 242501
154 262335 234416
155 253408 226952
156 245710 219908
157 237749 213228
158 230959 206572
159 223551 200532
160 215162 193352
161 207586 187384
162 200778 180978
163 193313 175974
164 187038 170054
165 179438 164661
166 174117 160186
167 167493 154142
168 161526 149906
169 156120 144504
170 149767 139162
171 143501 134929
172 139412 130451
173 133098 125228
174 128254 120582
175 123357 116087
176 117631 112574
177 113512 108124
178 108499 104116
179 103039 100241
180 98446 96421
181 94293 92535
182 89369 89548
183 85580 86019
184 81060 83497
185 77458 79962
186 74027 76531
187 69238 73385
188 65345 70257
189 61746 67577
190 58581 65588
191 55464 63194
192 52861 60304
193 50200 58311
194 47060 56059
195 44494 54483
196 41668 52215
197 39949 50276
198 38003 48267
199 35686 46508
200 33800 44402
201 32234 43109
202 30549 42122
203 29235 40547
204 28046 39390
205 26464 38354
206 25458 37390
207 24586 35964
208 23515 34992
209 22572 34131
210 21849 33240
211 21194 32831
212 20227 32192
213 19971 31831
214 19353 31105
215 18789 30781
216 18058 30745
217 18536 30295
218 18085 29717
219 17432 29860
220 17110 29792
221 16913 29670
222 16758 29198
223 16556 29450
224 16618 29389
225 16729 29571
226 17008 29796
227 16992 29774
228 17401 30427
229 17662 31207
230 17857 31631
231 18212 32232
232 19072 33144
233 19693 33694
234 20299 35102
235 21324 36783
236 22281 38516
237 23601 40993
238 25647 43873
239 27782 47630
240 30638 52243
241 33614 57577
242 37431 64589
243 41279 72187
244 45631 79661
245 47029 86978
246 44996 88402
247 36732 80307
248 22626 56983
249 8476 22809
250 2922 9316
251 1261 5187
252 611 3370
253 372 2408
254 287 1891
255 194 1508
256 172 1420
257 117 1138
258 87 1011
259 80 929
260 75 790
261 56 667
262 61 675
263 41 551
264 54 495
265 37 507
266 43 439
267 36 360
268 32 324
269 34 312
270 23 277
271 14 287
272 18 265
273 9 230
274 6 213
275 9 209
276 5 188
277 6 178
278 7 177
279 6 153
280 2 150
281 1 136
282 2 127
283 2 148
284 1 124
285 2 118
286 2 118
287 0 94
288 0 95
289 0 71
290 0 65
291 0 74
292 0 72
293 0 57
294 0 58
295 0 58
296 0 52
297 0 46
298 0 48
299 0 43
300 0 43
301 0 41
302 0 38
303 0 38
304 0 30
305 0 25
306 0 27
307 0 27
308 0 22
309 0 25
310 0 19
311 0 17
312 0 14
313 0 14
314 0 15
315 0 10
316 0 12
317 0 12
318 0 9
319 0 7
320 0 6
321 0 6
322 0 3
323 0 4
324 0 8
325 0 4
326 0 4
327 0 4
