3496950 2359471
0 7220569 8429553
1 1052955 1490581
2 421153 700551
3 295456 543288
4 271219 502336
5 276406 508430
6 299402 535578
7 330412 569255
8 374534 601160
9 418241 647669
10 478907 697520
11 549161 748516
12 630151 800075
13 726810 855227
14 831475 920355
15 947083 982974
16 1072986 1049433
17 1189025 1116638
18 1304557 1177827
19 1403584 1221886
20 1493620 1260916
21 1559916 1295077
22 1610515 1311116
23 1644308 1324318
24 1662106 1327749
25 1660237 1330790
26 1655223 1328121
27 1649386 1322766
28 1638184 1318708
29 1633404 1324108
30 1634486 1330183
31 1651619 1351089
32 1672812 1373461
33 1712041 1395100
34 1755822 1429379
35 1810908 1463494
36 1881894 1506155
37 1953156 1542185
38 2028360 1581445
39 2109058 1615434
40 2190901 1645708
41 2264062 1669120
42 2327564 1691834
43 2383792 1707550
44 2432162 1715660
45 2468177 1716337
46 2495414 1712214
47 2510003 1705744
48 2519809 1693852
49 2516341 1676943
50 2507889 1656102
51 2492063 1629833
52 2473973 1603775
53 2452620 1587079
54 2430134 1562217
55 2411816 1550833
56 2399560 1540322
57 2387364 1529726
58 2385533 1525705
59 2391471 1528265
60 2412742 1537384
61 2442975 1552930
62 2483331 1572024
63 2529142 1597802
64 2587838 1627856
65 2653929 1656425
66 2728486 1689041
67 2812596 1731978
68 2901770 1771907
69 2989612 1813944
70 3081037 1857176
71 3171903 1897058
72 3262189 1935006
73 3343810 1966356
74 3420959 2002035
75 3491514 2028611
76 3551572 2043685
77 3598288 2057007
78 3635427 2061122
79 3658333 2061666
80 3667770 2047473
81 3656894 2028990
82 3631541 2010629
83 3592348 1980884
84 3542565 1942394
85 3476335 1896779
86 3403487 1849374
87 3321113 1800479
88 3235518 1748643
89 3127624 1680723
90 3016208 1615971
91 2897304 1551430
92 2777159 1484334
93 2653421 1414557
94 2522441 1345467
95 2394672 1281299
96 2266304 1214361
97 2139841 1149456
98 2015415 1084185
99 1898351 1022181
100 1782214 964315
101 1665664 909884
102 1562903 854324
103 1459113 805335
104 1360838 752166
105 1272723 707356
106 1184541 667216
107 1107373 626481
108 1033216 590308
109 965219 555672
110 903210 528052
111 845076 497697
112 793584 476498
113 744825 452584
114 704079 433020
115 668803 415658
116 634170 398774
117 607850 384545
118 582842 370660
119 558922 360372
120 539162 349268
121 523742 339405
122 507957 331817
123 494342 323148
124 485871 315791
125 477814 311090
126 470392 304167
127 464347 297492
128 458578 293457
129 453266 287700
130 448416 281350
131 443772 277421
132 438812 272866
133 434516 269415
134 426568 264344
135 419855 260953
136 414783 254409
137 407515 248319
138 399629 243670
139 393988 238211
140 384732 232201
141 377038 228063
142 367927 222212
143 358331 216487
144 349097 210857
145 339558 204137
146 330514 197708
147 322551 191658
148 313549 186311
149 304960 181087
150 296286 174959
151 288414 170214
152 279550 165701
153 270976 160514
154 264369 156354
155 254608 152232
156 246894 147054
157 240423 142352
158 233213 138901
159 225692 133116
160 218741 130701
161 214004 127287
162 207324 124816
163 201834 120592
164 196370 117508
165 190497 114026
166 184664 110593
167 179309 107392
168 174128 103753
169 169363 101345
170 165124 98369
171 159422 95316
172 153957 92097
173 148603 89098
174 144037 86353
175 140154 83173
176 136178 80920
177 132180 77978
178 128041 74833
179 125158 72749
180 120472 69545
181 117415 67800
182 112571 65493
183 109156 63156
184 104008 61362
185 100565 59033
186 96727 56189
187 92911 54404
188 89317 53153
189 86120 50800
190 82202 48562
191 79042 47056
192 76005 45814
193 72473 44375
194 70087 42660
195 67812 41462
196 66297 39735
197 63242 38424
198 61358 36896
199 59351 36219
200 57811 34589
201 54843 33518
202 53237 32769
203 51469 31366
204 49380 30432
205 47961 29452
206 46116 28749
207 44553 27635
208 43548 27235
209 41954 26722
210 40419 26512
211 39649 25886
212 38998 25442
213 37500 25294
214 37377 24964
215 36687 24812
216 35901 24321
217 35176 23704
218 34852 23768
219 34725 23854
220 34281 23486
221 33866 23607
222 33612 24065
223 33345 24057
224 33052 24092
225 33098 24640
226 32887 24958
227 32892 25392
228 33223 25769
229 33808 26516
230 33892 27414
231 33955 28279
232 34842 28894
233 35467 30158
234 36758 31220
235 38076 32847
236 39189 35218
237 40906 37845
238 43593 41034
239 46228 44449
240 49707 49042
241 53807 54806
242 58885 62619
243 64594 72548
244 69835 84091
245 73510 98194
246 70587 116925
247 59455 140877
248 36719 131524
249 12230 25187
250 3769 10916
251 1443 6736
252 713 4833
253 469 3713
254 338 3256
255 231 2822
256 177 2696
257 192 2452
258 153 2123
259 134 2197
260 116 1939
261 85 1812
262 76 1681
263 88 1745
264 117 1769
265 91 1574
266 53 1459
267 49 1418
268 49 1380
269 39 1187
270 33 1177
271 37 1148
272 26 1112
273 36 1092
274 17 1092
275 16 974
276 17 926
277 15 933
278 14 878
279 19 892
280 16 885
281 14 917
282 16 806
283 9 806
284 6 841
285 17 759
286 11 724
287 7 719
288 5 704
289 9 696
290 7 642
291 4 641
292 6 672
293 3 656
294 4 678
295 6 656
296 5 667
297 5 608
298 4 621
299 3 598
300 3 652
301 5 576
302 6 545
303 4 509
304 2 524
305 3 505
306 3 525
307 4 592
308 2 556
309 0 520
310 0 461
311 0 557
312 0 490
313 0 477
314 0 423
315 0 404
316 0 413
317 0 387
318 0 363
319 0 315
320 0 333
321 0 321
322 0 323
323 0 336
324 0 313
325 0 288
326 0 272
327 0 278
328 0 271
329 0 285
330 0 262
331 0 246
332 0 244
333 0 246
334 0 254
335 0 234
336 0 214
337 0 236
338 0 212
339 0 216
340 0 206
341 0 196
342 0 169
343 0 171
344 0 175
345 0 173
346 0 161
347 0 147
348 0 134
349 0 137
350 0 131
351 0 111
352 0 109
353 0 117
354 0 120
355 0 116
356 0 115
357 0 107
358 0 93
359 0 86
360 0 84
361 0 76
362 0 67
363 0 59
364 0 57
365 0 48
366 0 43
367 0 33
368 0 34
369 0 25
370 0 22
371 0 15
372 0 10
373 0 4
374 0 8
375 0 2
