2527428 2036692
0 4314115 8076910
1 806801 1325231
2 370686 584487
3 289275 451964
4 271797 424950
5 277650 433366
6 298856 459046
7 329766 491471
8 357073 526416
9 392221 562341
10 428834 603463
11 480514 643154
12 536734 691696
13 598529 744481
14 670083 803112
15 748699 859235
16 832420 914068
17 916712 967568
18 989141 1015476
19 1060702 1061257
20 1116872 1094597
21 1169089 1117771
22 1207656 1131179
23 1232096 1141245
24 1242954 1141905
25 1248125 1142336
26 1241549 1141231
27 1229948 1143410
28 1226864 1147776
29 1225289 1154968
30 1230693 1172285
31 1239203 1193608
32 1256110 1218455
33 1289003 1246255
34 1321865 1285135
35 1363745 1316803
36 1414890 1350365
37 1466801 1386293
38 1525224 1413843
39 1580466 1443969
40 1638185 1463011
41 1689216 1478730
42 1735217 1490522
43 1775271 1497579
44 1806694 1490479
45 1825810 1484013
46 1843515 1470682
47 1852071 1460875
48 1855797 1448944
49 1845841 1425635
50 1832719 1400978
51 1815399 1380625
52 1797579 1357143
53 1775646 1334750
54 1752951 1316453
55 1732270 1300519
56 1713775 1288331
57 1700852 1277129
58 1696100 1280794
59 1692329 1283164
60 1696765 1294692
61 1713743 1309130
62 1738887 1325650
63 1765250 1342686
64 1803073 1367869
65 1851548 1395611
66 1898080 1426431
67 1956167 1460281
68 2014558 1498866
69 2074067 1530697
70 2137526 1565059
71 2198114 1594300
72 2262898 1620761
73 2323890 1647298
74 2384561 1668502
75 2435065 1686107
76 2480020 1695028
77 2512798 1698613
78 2541285 1698611
79 2557940 1689961
80 2565718 1677249
81 2565536 1659883
82 2550364 1636466
83 2522857 1604943
84 2488609 1573333
85 2445724 1535742
86 2395634 1493011
87 2335235 1447275
88 2271358 1395410
89 2202243 1344458
90 2118717 1292003
91 2039870 1238646
92 1952031 1179653
93 1861779 1121251
94 1770328 1065667
95 1680114 1012181
96 1590682 955258
97 1503954 902824
98 1418311 852231
99 1332475 804853
100 1248355 757648
101 1166578 712790
102 1091982 671422
103 1018614 630461
104 946562 591264
105 880280 558387
106 820294 525271
107 762500 497756
108 711829 468247
109 665102 442111
110 620295 418442
111 579960 395107
112 544837 377727
113 511359 358943
114 481020 343948
115 456131 331138
116 432820 318584
117 413558 307413
118 397746 298552
119 381072 289403
120 365311 281543
121 354533 275471
122 343415 269028
123 336129 263266
124 330375 257922
125 324863 253821
126 319510 248137
127 315884 242028
128 311412 239285
129 307733 233789
130 305067 231733
131 302939 227491
132 300404 222532
133 296065 217504
134 293147 213512
135 289881 208684
136 284830 204286
137 279144 199634
138 276129 196092
139 271550 191245
140 265439 186476
141 259765 181135
142 254346 176991
143 249780 172888
144 245429 168096
145 239725 164145
146 233420 159834
147 226431 155367
148 220513 149882
149 214351 146091
150 208828 140791
151 202911 136301
152 196374 132054
153 190018 128909
154 185233 123311
155 179388 119975
156 173951 115736
157 168257 112105
158 163552 108924
159 159162 106313
160 154594 102448
161 150661 99305
162 144821 97054
163 140702 94187
164 136462 90671
165 132975 88590
166 129629 85294
167 125713 82981
168 122717 81008
169 119678 78428
170 115761 75824
171 111182 72855
172 107369 71442
173 103713 68807
174 99599 66819
175 97908 65220
176 94077 62909
177 91796 61570
178 89649 59539
179 85879 57502
180 82839 56041
181 80079 53687
182 77490 52513
183 74122 50474
184 71402 49018
185 68992 47276
186 65952 45942
187 63149 44486
188 61028 43154
189 58165 41771
190 56150 41092
191 53475 39318
192 51418 38054
193 49850 36874
194 47749 36328
195 45862 35590
196 44619 34204
197 43063 33428
198 41074 32246
199 39648 31919
200 38930 30735
201 37587 30257
202 36752 29971
203 35804 29012
204 34512 28581
205 34426 28523
206 33678 28056
207 32961 27530
208 32771 27092
209 32415 27180
210 31992 27326
211 31246 26669
212 31398 26957
213 31204 26803
214 31397 26281
215 30884 26420
216 31131 26744
217 31377 27023
218 31982 27492
219 32530 28258
220 33508 28717
221 34147 29494
222 35066 30616
223 35938 31758
224 37030 33311
225 38162 34828
226 39248 36228
227 40769 38297
228 43267 40284
229 45325 42643
230 47581 45448
231 50048 49118
232 53929 52649
233 57785 56998
234 62818 62143
235 68387 68825
236 75296 76342
237 83717 86983
238 94977 99384
239 110321 115443
240 129762 135085
241 154177 160041
242 184086 191291
243 220894 229697
244 258675 278932
245 289076 350591
246 301382 474414
247 273833 699952
248 186231 826301
249 45227 74954
250 12798 24004
251 6561 12952
252 4039 9233
253 2901 7034
254 2323 5852
255 1972 5097
256 1568 4690
257 1309 4294
258 1087 4113
259 1006 3879
260 956 3637
261 792 3382
262 802 3479
263 662 3213
264 562 3161
265 574 3105
266 412 3025
267 343 2999
268 346 2924
269 340 2821
270 362 2821
271 344 2723
272 269 2669
273 247 2687
274 198 2594
275 182 2458
276 169 2408
277 151 2387
278 170 2309
279 169 2334
280 156 2329
281 153 2260
282 148 2210
283 147 2202
284 150 2172
285 125 2085
286 132 2048
287 150 2015
288 147 1978
289 129 1951
290 155 1935
291 152 1951
292 147 1831
293 160 1852
294 149 1807
295 150 1736
296 155 1679
297 156 1663
298 161 1627
299 163 1628
300 162 1562
301 129 1588
302 135 1479
303 136 1481
304 126 1432
305 91 1377
306 81 1285
307 58 1279
308 55 1273
309 29 1238
310 27 1210
311 33 1105
312 21 1142
313 20 1121
314 11 1034
315 9 1038
316 7 978
317 0 1004
318 0 943
319 0 933
320 0 874
321 0 882
322 0 870
323 0 846
324 0 816
325 0 814
326 0 805
327 0 773
328 0 769
329 0 739
330 0 713
331 0 702
332 0 656
333 0 618
334 0 602
335 0 602
336 0 583
337 0 575
338 0 571
339 0 536
340 0 544
341 0 522
342 0 518
343 0 445
344 0 451
345 0 459
346 0 446
347 0 430
348 0 408
349 0 399
350 0 363
351 0 346
352 0 321
353 0 329
354 0 309
355 0 285
356 0 274
357 0 260
358 0 254
359 0 241
360 0 213
361 0 198
362 0 170
363 0 158
364 0 161
365 0 144
366 0 126
367 0 119
368 0 110
369 0 100
370 0 96
371 0 88
372 0 91
373 0 76
374 0 82
375 0 73
376 0 71
377 0 61
378 0 54
379 0 47
380 0 43
381 0 44
382 0 33
383 0 33
384 0 21
385 0 18
386 0 6
387 0 3
388 0 3
389 0 1
390 0 1
