2152527 1717887
0 5663579 7426337
1 864175 1220247
2 395794 578400
3 292940 436509
4 269604 391493
5 270548 397486
6 285132 406473
7 312204 431206
8 341713 454020
9 377022 483655
10 411568 511594
11 453005 542258
12 499805 583511
13 552215 617032
14 608161 655166
15 666119 692268
16 730697 733158
17 791655 771011
18 856874 810131
19 912079 838553
20 957913 862948
21 1000414 882048
22 1025828 906006
23 1045659 915687
24 1059468 924571
25 1063186 932918
26 1067497 941303
27 1067591 952491
28 1067261 959796
29 1068773 981377
30 1080802 996006
31 1094465 1017131
32 1116406 1043135
33 1137478 1071114
34 1165822 1105815
35 1208031 1137534
36 1248907 1170715
37 1296790 1200953
38 1343682 1228065
39 1394932 1249313
40 1438899 1266020
41 1477196 1283839
42 1512792 1297114
43 1537035 1297557
44 1561981 1300620
45 1580034 1294820
46 1588965 1288296
47 1591862 1274338
48 1592114 1259474
49 1581558 1243619
50 1570143 1222831
51 1553033 1204371
52 1536976 1181858
53 1519175 1163308
54 1499366 1146150
55 1485551 1132935
56 1476919 1116737
57 1468920 1109896
58 1464645 1104778
59 1471088 1105530
60 1475248 1110030
61 1490605 1119292
62 1515751 1130860
63 1549393 1142877
64 1584071 1162918
65 1622091 1186426
66 1671322 1214358
67 1721536 1242609
68 1772821 1268197
69 1827349 1293720
70 1877586 1322327
71 1926121 1348605
72 1974885 1376714
73 2021507 1396013
74 2062061 1416408
75 2099188 1427752
76 2128916 1432390
77 2148659 1436982
78 2166948 1435898
79 2171512 1434219
80 2174254 1426821
81 2163799 1412709
82 2145205 1389068
83 2123022 1368136
84 2092500 1339621
85 2049833 1306014
86 2000993 1273179
87 1949367 1235458
88 1886698 1194164
89 1820716 1150395
90 1756921 1107325
91 1686500 1060801
92 1615539 1016261
93 1543477 968350
94 1468583 919895
95 1394691 869363
96 1319817 823560
97 1245552 778797
98 1169285 734036
99 1097149 693346
100 1028027 654555
101 962513 618005
102 898495 583055
103 838323 549033
104 782542 516760
105 729801 486652
106 679676 458474
107 636034 432990
108 592385 412238
109 554301 392791
110 518410 374267
111 485508 354822
112 457236 340528
113 429740 327133
114 406493 313963
115 385898 303061
116 366103 292273
117 350632 283651
118 337159 275555
119 323694 267769
120 311595 261610
121 303997 255890
122 294427 248130
123 287474 243230
124 281449 238212
125 277323 234844
126 272782 231180
127 270113 224512
128 266103 221737
129 262517 217774
130 259210 214751
131 256195 211144
132 251847 207405
133 248599 202635
134 245156 199244
135 241153 195714
136 237211 191580
137 232704 188051
138 229719 184915
139 223863 180085
140 217920 176395
141 213197 171871
142 208499 168130
143 203124 161981
144 197601 158222
145 191833 153046
146 186226 148590
147 181474 143764
148 175612 140059
149 170230 136224
150 164509 132035
151 158306 127695
152 153607 124000
153 147777 120774
154 143359 117045
155 138702 112929
156 133775 108959
157 129532 106161
158 125110 102402
159 121563 100023
160 116382 96651
161 112094 93771
162 108285 90996
163 103875 88108
164 100007 85191
165 96392 82290
166 93378 79909
167 90490 77094
168 86492 73971
169 83782 71538
170 79859 69792
171 77080 67283
172 74000 65327
173 71637 63060
174 69088 61379
175 66459 59337
176 64929 57538
177 61763 55685
178 59277 53687
179 56565 51392
180 54273 50422
181 51324 48177
182 49155 46714
183 47458 44961
184 45361 42846
185 42350 41343
186 39776 39872
187 37769 38349
188 36077 37476
189 34800 36062
190 32715 34224
191 31104 33056
192 29631 32094
193 28375 31033
194 26881 30212
195 25441 29025
196 24277 27922
197 22916 27239
198 21879 26689
199 20789 25328
200 19853 24645
201 18881 23901
202 17779 23072
203 16956 22234
204 15994 21608
205 15474 21118
206 15046 20228
207 14300 19783
208 13787 19272
209 13619 18704
210 13332 18447
211 12901 18421
212 12541 18056
213 12222 17733
214 11861 17276
215 11753 17653
216 11382 17068
217 11194 17302
218 10738 16933
219 10787 16864
220 10670 16766
221 10440 16858
222 10693 16908
223 10702 17037
224 10594 16974
225 10714 17279
226 10708 17280
227 10681 17490
228 10972 17656
229 10945 18368
230 11041 18710
231 11219 19166
232 11575 19449
233 11814 20052
234 12159 21146
235 12764 22406
236 13370 23833
237 14304 25026
238 15315 26827
239 16668 29130
240 17872 32223
241 19949 36014
242 22320 40440
243 25049 46574
244 28073 52632
245 30142 61289
246 29701 69779
247 25436 80226
248 16585 87943
249 7097 16029
250 2932 6289
251 1582 3760
252 1001 2567
253 727 2024
254 569 1713
255 465 1454
256 428 1289
257 360 1214
258 300 1126
259 293 1052
260 267 1107
261 256 1062
262 228 1004
263 239 977
264 204 907
265 211 984
266 201 927
267 190 915
268 155 911
269 166 946
270 156 868
271 154 874
272 138 905
273 124 818
274 117 763
275 111 646
276 115 646
277 136 632
278 123 624
279 104 598
280 120 584
281 101 551
282 99 535
283 95 570
284 93 548
285 93 495
286 93 494
287 81 453
288 87 435
289 65 445
290 72 454
291 85 420
292 70 418
293 73 428
294 72 416
295 81 413
296 70 426
297 67 389
298 59 372
299 56 383
300 49 378
301 38 352
302 36 357
303 41 396
304 40 355
305 22 366
306 22 330
307 17 330
308 18 313
309 11 310
310 7 305
311 4 274
312 3 252
313 5 243
314 8 241
315 5 239
316 1 246
317 4 255
318 0 246
319 0 238
320 0 237
321 0 216
322 0 212
323 0 196
324 0 171
325 0 180
326 0 198
327 0 192
328 0 171
329 0 185
330 0 190
331 0 178
332 0 178
333 0 172
334 0 166
335 0 165
336 0 164
337 0 148
338 0 145
339 0 133
340 0 129
341 0 123
342 0 118
343 0 113
344 0 101
345 0 102
346 0 87
347 0 90
348 0 64
349 0 77
350 0 74
351 0 66
352 0 71
353 0 59
354 0 57
355 0 49
356 0 49
357 0 53
358 0 42
359 0 37
360 0 35
361 0 36
362 0 39
363 0 32
364 0 25
365 0 28
366 0 21
367 0 21
368 0 24
369 0 27
370 0 22
371 0 17
372 0 19
373 0 19
374 0 14
375 0 11
376 0 12
377 0 12
378 0 11
379 0 13
380 0 11
381 0 12
382 0 13
383 0 12
384 0 11
385 0 8
386 0 11
387 0 12
388 0 11
389 0 12
390 0 10
391 0 10
392 0 10
393 0 3
