2194286 1945465
0 3766791 5278908
1 626918 944088
2 297987 458629
3 224757 346719
4 200607 327296
5 199597 325928
6 209427 338667
7 224185 362504
8 250379 389150
9 277920 428791
10 314959 468677
11 356795 516397
12 410845 565946
13 468424 620522
14 536542 678196
15 604379 739112
16 683184 800122
17 756211 857268
18 825875 909520
19 890433 952874
20 942656 986962
21 980354 1015915
22 1012495 1032802
23 1030292 1038040
24 1041341 1046699
25 1049440 1052412
26 1047566 1049110
27 1041534 1050928
28 1037539 1055964
29 1031199 1065256
30 1030763 1079417
31 1039265 1095234
32 1053057 1120341
33 1067391 1147617
34 1095990 1181154
35 1137276 1215452
36 1180360 1250484
37 1224990 1281622
38 1272998 1310373
39 1327511 1342003
40 1376833 1368774
41 1428095 1391021
42 1472347 1405955
43 1510857 1420647
44 1540074 1422988
45 1564176 1420227
46 1582629 1418307
47 1596493 1405992
48 1600157 1391026
49 1602515 1371920
50 1598304 1356281
51 1587870 1333956
52 1573775 1316791
53 1562267 1296972
54 1547715 1278301
55 1531539 1262630
56 1514762 1251404
57 1507839 1244792
58 1504308 1248459
59 1505529 1253157
60 1515850 1257361
61 1530222 1269398
62 1555242 1288237
63 1584146 1313643
64 1616583 1340637
65 1655876 1376261
66 1700346 1403054
67 1751861 1436072
68 1810378 1470655
69 1866416 1505426
70 1926277 1540146
71 1985714 1568809
72 2039081 1594348
73 2089696 1622446
74 2139879 1644616
75 2184239 1663675
76 2220557 1670921
77 2256528 1677332
78 2282910 1681655
79 2297880 1678465
80 2303397 1671054
81 2303920 1658458
82 2293243 1638655
83 2278233 1611532
84 2251974 1581564
85 2213498 1546940
86 2168823 1508299
87 2117610 1464664
88 2056407 1416254
89 1995266 1367198
90 1925525 1317364
91 1851997 1267881
92 1779751 1215064
93 1702364 1163875
94 1625167 1108393
95 1547499 1059972
96 1466088 1005371
97 1388049 957027
98 1306530 904382
99 1229507 855400
100 1155372 809651
101 1084284 765386
102 1012844 722192
103 947739 682993
104 883788 646566
105 824727 610008
106 770632 576739
107 719307 546859
108 670655 517148
109 627033 489461
110 587525 467006
111 548478 444450
112 515317 423897
113 485079 408622
114 456904 392976
115 431622 378169
116 412141 366783
117 392263 355161
118 376944 345945
119 361692 337859
120 348843 328650
121 335360 321166
122 324731 313803
123 316223 307755
124 308385 300911
125 302123 296710
126 295594 292093
127 292329 288940
128 287492 283363
129 283703 279394
130 280135 274363
131 276207 269192
132 272031 263424
133 267786 258105
134 263399 254312
135 258699 249314
136 255389 245475
137 251873 238864
138 247916 233918
139 243288 228844
140 238955 222942
141 234143 218429
142 227968 212959
143 222269 207549
144 216465 203043
145 210357 197424
146 203500 192403
147 197605 186297
148 192010 181477
149 186312 175910
150 180991 171361
151 176310 166824
152 171199 161660
153 166344 157920
154 161457 152608
155 156585 147835
156 151351 143396
157 146285 138838
158 140672 134944
159 135756 130743
160 131576 127702
161 126799 124136
162 122540 120549
163 118665 116379
164 115222 113436
165 111346 110364
166 107590 106903
167 104060 103426
168 99701 101040
169 96569 98504
170 93230 96194
171 89952 93379
172 87429 91130
173 84192 88081
174 80260 85424
175 77677 82739
176 75144 80281
177 72464 78825
178 68726 76347
179 66073 73817
180 63762 71393
181 60494 69622
182 57829 67513
183 55920 65226
184 53306 63092
185 50392 61085
186 48171 59193
187 45581 57223
188 43739 55948
189 41255 53732
190 39544 52339
191 37519 50948
192 35772 49303
193 34049 48097
194 32806 46637
195 31225 45543
196 29871 44195
197 28867 43527
198 27203 41870
199 26364 41501
200 25026 40475
201 23905 39671
202 22413 39140
203 21892 38567
204 20730 37904
205 20124 37517
206 19530 36827
207 18516 36305
208 18438 35779
209 18143 35263
210 17371 34629
211 17107 34754
212 16608 34249
213 16177 34168
214 15966 34057
215 15545 33724
216 15196 34047
217 15174 33185
218 15104 33608
219 14761 33502
220 14573 33837
221 14781 34436
222 14596 35522
223 14720 35779
224 14410 36558
225 14762 37004
226 15063 37900
227 15301 38897
228 15196 39479
229 15289 40667
230 15676 41886
231 15992 44499
232 16197 46509
233 16536 49401
234 17061 51735
235 18050 55260
236 18636 59824
237 19961 64714
238 20984 71630
239 22904 80812
240 25157 91984
241 27702 105331
242 30735 122706
243 34037 144968
244 37353 173002
245 39907 207771
246 39285 251504
247 33984 309083
248 22198 317242
249 8553 58366
250 3210 20980
251 1580 11269
252 924 7585
253 654 5884
254 476 4870
255 365 4040
256 315 3627
257 280 3162
258 274 2926
259 229 2805
260 198 2520
261 191 2479
262 185 2321
263 146 2160
264 137 2160
265 124 2125
266 125 1939
267 109 1863
268 113 1798
269 102 1724
270 69 1659
271 58 1614
272 61 1517
273 57 1457
274 37 1400
275 23 1334
276 23 1270
277 21 1333
278 29 1225
279 21 1192
280 23 1174
281 26 1150
282 19 1110
283 13 1131
284 18 1089
285 9 1016
286 19 963
287 10 938
288 8 937
289 5 951
290 2 872
291 1 867
292 1 811
293 1 797
294 1 697
295 2 746
296 1 700
297 1 665
298 0 650
299 0 593
300 0 582
301 0 609
302 0 571
303 0 544
304 0 511
305 0 509
306 0 527
307 0 488
308 0 415
309 0 418
310 0 375
311 0 371
312 0 326
313 0 318
314 0 310
315 0 305
316 0 310
317 0 279
318 0 279
319 0 275
320 0 265
321 0 228
322 0 218
323 0 231
324 0 194
325 0 186
326 0 177
327 0 182
328 0 167
329 0 168
330 0 148
331 0 147
332 0 151
333 0 133
334 0 130
335 0 116
336 0 101
337 0 99
338 0 86
339 0 85
340 0 88
341 0 95
342 0 91
343 0 73
344 0 64
345 0 62
346 0 68
347 0 59
348 0 54
349 0 58
350 0 45
351 0 38
352 0 43
353 0 37
354 0 34
355 0 29
356 0 32
357 0 33
358 0 26
359 0 18
360 0 22
361 0 10
362 0 15
363 0 12
364 0 5
365 0 8
366 0 8
367 0 5
368 0 8
369 0 8
370 0 2
371 0 3
372 0 2
373 0 4
