"","","1","2","3"
"08EA01",3,6.9253491424482e-37,1.49070137538012e-66,1
"08EA06",3,1.15771498524165e-35,4.44681005505393e-72,1
"08EA09",3,2.58983011695185e-34,9.44924070011788e-69,1
"08EA105",3,1.24721723815546e-07,6.58695299549258e-32,0.999999875278276
"08EA106",3,5.81966783016535e-30,3.84641516574827e-55,1
"08EA11",3,1.82859124790602e-30,2.0415868034716e-63,1
"08EA15",3,6.3355347722086e-31,1.20993687557941e-62,1
"08EA16",3,5.73193029978504e-35,6.08424514375365e-64,1
"08EA18",3,1.17880247164094e-33,2.46076372827532e-72,1
"08EA19",3,1.3525016252183e-37,2.39483483455125e-75,1
"08EA22",3,6.79253692463056e-26,3.86356104083886e-51,1
"08EA42",3,5.59809303003388e-37,1.36502656249863e-74,1
"08EA43",3,4.11617145001909e-35,2.03637037447875e-65,1
"08EA50",3,9.89821847003867e-36,6.8041511085959e-65,1
"08EA55",3,1.22366778282726e-33,2.34735646132695e-75,1
"08EA61",3,8.19774420074592e-23,1.15002892023952e-55,1
"08EA66",3,5.71324917331594e-29,1.34990390458152e-65,1
"08EA85",3,5.00622012285986e-27,2.33666952353684e-59,1
"08EA95",3,5.26835806088478e-32,1.41798054893729e-73,1
"93CU01",2,3.82340517505384e-30,1,1.31373362350018e-54
"93CV01",2,1.56018090947978e-28,1,3.28215194994962e-55
"93DL02",2,2.54695718098392e-27,1,4.69014468622628e-49
"93EA02",2,1.30162665465592e-40,1,4.58069724755249e-70
"93EC04",2,5.13881208116779e-30,1,1.11190146392715e-57
"93EF08",2,1.56103075262125e-28,1,3.12240093958518e-56
"93GR07",2,1.0264335361403e-25,1,3.20071219308767e-54
"93GS03",2,9.6730419783525e-39,1,2.64246208656127e-70
"93GT01",2,8.8288412368474e-44,1,5.73563228283359e-76
"93GV08",2,4.83530436550426e-38,1,7.0372084389942e-69
"93GW03",2,1.33575824651429e-40,1,7.39930803544233e-71
"93HW05",2,8.05646593770739e-35,1,6.76761054101879e-69
"93IB07",2,1.10613217608411e-35,1,1.22917431976726e-64
"93IC08",2,1.26790220520921e-40,1,1.84406761178135e-67
"93NU02",2,3.05448267113771e-39,1,1.25826754218744e-71
"93NX06",2,3.43296756102604e-34,1,6.49851233386176e-63
"93OC05",2,1.43403542797304e-33,1,7.35586209098221e-66
"93Q01",2,9.36933176862608e-36,1,2.67599271460655e-68
"94ZZ01",1,1,2.46493628587947e-38,2.71089389836862e-35
"94ZZ03",1,1,2.28492461912871e-36,3.40489442725938e-34
"94ZZ07",1,1,4.83360938524446e-40,1.46353950594509e-27
"94ZZ10",1,1,5.4817188445645e-31,1.29012693427777e-26
"94ZZ11",1,1,1.96635795233776e-43,9.22547069006283e-40
"94ZZ12",1,1,2.55863002906505e-38,6.60757143572488e-32
"94ZZ13",1,1,1.12504690118778e-30,5.32600299429872e-27
"94ZZ14",1,1,1.5232657213924e-37,1.47840435226093e-34
"94ZZ15",1,1,9.43287917553835e-33,6.64800835798673e-36
"94ZZ16",1,1,1.66628186612038e-34,6.54491279352233e-33
"94ZZ18",1,1,5.11398684930234e-40,7.32361767736591e-31
"94ZZ19",1,1,2.14174473216524e-44,2.58406193372898e-38
"94ZZ20",1,1,6.69313403492629e-39,9.118906610852e-33
"94ZZ21",1,1,3.38408457678894e-25,2.81466371057577e-20
"94ZZ33",1,1,1.03717894941948e-38,2.93966761592827e-33
"94ZZ35",1,1,1.27551662988144e-34,1.54745091529769e-33
"94ZZ36",1,1,1.95354223778528e-37,1.3826407546937e-28
"94ZZ37",1,1,4.28098632645828e-36,1.45470974374771e-33
"98AA06",1,1,4.4786956966429e-39,1.57461726950551e-37
"98AB02",1,1,2.77666734883619e-27,4.18894429487756e-23
"98AB07",1,1,2.3301283811084e-16,3.66087485093285e-34
"98AC08",1,1,3.36066546335537e-32,2.47772277859258e-27
"98AD04",1,1,5.7049259579436e-43,4.72634211473487e-31
"98AG03",1,1,4.90688260882798e-35,6.05167767689872e-33
"98AG18",1,1,1.54535160059949e-38,5.88646100000497e-35
"98AG36",1,1,2.28139180869561e-32,5.45580293749185e-23
"98AG42",1,1,1.0812537710381e-40,8.61745471648784e-38
"98AG49",1,1,2.22674868203975e-40,1.55741651365502e-29
"98AG54",1,1,4.43712886205378e-39,3.59417571262954e-33
"98AG56",1,1,1.64235826578387e-36,9.77386400691735e-30
"98AG69",1,1,3.55563350663653e-27,5.54004294708625e-23
"98AI01",1,1,7.36011146289918e-35,8.02813810332546e-34
"98AI35",1,1,1.19583905420622e-39,2.91036889891139e-36
"98AI58",1,1,4.8979503555636e-39,8.44711722349539e-35
"98AP02",1,1,1.12191190917561e-32,1.57564094982731e-34
"98AP03",1,1,5.8315373355226e-37,1.05489362050189e-26
"98GB03",1,1,1.67619670390984e-33,5.50733182214751e-37
"98GC04",1,1,1.6346822844891e-26,3.09778333070236e-23
"98GD05",1,1,3.69545170899979e-33,2.15091271535272e-35
