expected: 112 candidates: 116
LG15 2198745 0.9134694311960004
LG15 2198876 0.8960659620279717
LG16 228938 0.8847688397481956
LG15 2198700 0.8587044174058494
LG15 2198692 0.8579873651766685
LG15 2237229 0.8546557367036142
LG15 2233055 0.8340477955421113
LG15 2238834 0.8251330496339446
LG15 2233369 0.819050289331394
LG15 2253676 0.8141837042129353
LG15 2235951 0.8135081815174847
LG15 2198676 0.8062097684094724
LG15 2198091 0.7979483918433402
LG15 2198894 0.7949252930143074
LG15 2232600 0.7945256159604724
LG15 2198626 0.7905524585998359
LG15 2103540 0.7738679327865806
LG15 2198087 0.7735949955200083
LG15 2198068 0.7682892077476396
LG15 2198086 0.7677418948099486
LG15 2198401 0.7669637379732245
LG15 2198302 0.7590257375832936
LG15 2197856 0.7551651413780105
LG01 1025344 0.7523801989398802
LG15 2197931 0.7522388059701494
LG15 2198617 0.7448888612519143
LG15 2198002 0.7445568500898678
LG15 2198619 0.7398075331532852
LG15 3933960 0.7394332879949732
LG15 2256540 0.7301507776745892
LG15 2198118 0.7289887872070833
LG15 2198079 0.7284028776709373
LG15 3933947 0.7273054127499476
LG02 2118693 0.7250151129717578
LG15 4312409 0.7225622677292064
LG15 2240602 0.7205567318299987
LG15 2237672 0.7196542631763316
LG15 3855431 0.7152621703079464
LG15 2234944 0.7097603407290092
LG15 2198121 0.7094685284989125
LG15 4312405 0.709240305623576
LG02 1800034 0.7062001480890725
LG02 2417884 0.6958318466140165
LG15 2239379 0.6956568446504425
LG11 1185509 0.6935050630401021
LG11 699137 0.6930882020157331
LG06 2272487 0.6905149852467057
LG15 3548338 0.6903556034533422
LG15 2237951 0.6903466168767239
LG15 2192922 0.6892225456200392
LG15 3544892 0.6880523172917659
LG15 2198602 0.678905839786425
LG15 3040549 0.6700099057230571
LG02 2417979 0.6688589114828254
LG06 4040905 0.6641837511214803
LG02 2412845 0.6640697695520728
LG15 2240434 0.6638676811313161
LG06 2448476 0.662898489022068
LG15 2192909 0.6572490792814693
LG02 4970200 0.6569156210569677
LG15 2407963 0.6560885048007289
LG06 2272651 0.6548917861425424
LG09 2606263 0.6544972345392741
LG04 5609326 0.6541993745779501
LG08 5895897 0.6528732905494812
LG08 5895935 0.6528732905494812
LG06 4040864 0.6524327830703074
LG15 2237224 0.6520714479930494
LG06 4041669 0.6515895980613191
LG08 5895701 0.65
LG15 2268942 0.6482962657536419
LG08 5923740 0.647582438152697
LG08 5936953 0.647582438152697
LG06 4038458 0.6472823954893859
LG08 5949849 0.6469922253157977
LG06 4038057 0.6460095453321216
LG02 2417845 0.6446876814052456
LG08 5891436 0.6446595361018115
LG08 5949875 0.6446595361018115
LG08 5890988 0.6432813255168911
LG08 5946835 0.6432813255168911
LG08 5946865 0.6432813255168911
LG04 5609708 0.6422239881498215
LG08 5932740 0.641959302169172
LG15 2191500 0.6410041564818334
LG06 4040617 0.6409431939978563
LG08 119143 0.6407421802597001
LG05 409711 0.6401176796166138
LG15 2208231 0.6400510254900987
LG15 3549309 0.6399826155324335
LG09 2606272 0.6389700079079335
LG15 3933539 0.638444505941363
LG08 5897215 0.638428424244054
LG08 5897989 0.638428424244054
LG08 5898153 0.638428424244054
LG08 5898172 0.638428424244054
LG08 5905329 0.638428424244054
LG08 5905403 0.638428424244054
LG08 5905818 0.638428424244054
LG08 5907475 0.638428424244054
LG08 5909347 0.638428424244054
LG08 5910979 0.638428424244054
LG08 5911051 0.638428424244054
LG08 5914865 0.638428424244054
LG08 5915053 0.638428424244054
LG08 5918340 0.638428424244054
LG08 5928004 0.638428424244054
LG08 5928120 0.638428424244054
LG08 5929917 0.638428424244054
LG08 5933675 0.638428424244054
LG08 5936257 0.638428424244054
LG08 5939553 0.638428424244054
LG08 5940766 0.638428424244054
LG08 5942110 0.638428424244054
LG08 5945956 0.638428424244054
LG08 5948835 0.638428424244054
