0 18988450 0 0
1 3629001 0 0
2 1813829 0 187
3 1376490 0 43
4 1252971 0 217
5 1238651 0 289
6 1294576 0 526
7 1367379 0 582
8 1484993 0 880
9 1612056 0 1052
10 439697 1317776 1348
11 435489 1494844 1576
12 333650 1783669 2030
13 299152 2018998 2472
14 303773 2239510 2669
15 276351 2496389 3306
16 232958 2781008 3579
17 239495 3005714 3901
18 218370 3236844 4442
19 193874 3444128 4660
20 202515 3592807 4771
21 182107 3721014 5129
22 191045 3794909 5511
23 170256 3849759 5449
24 174186 3861859 5731
25 156973 3874923 5773
26 161315 3859282 6036
27 145686 3850180 6342
28 151264 3832325 6444
29 136604 3854380 6540
30 142347 3869689 6790
31 127341 3921456 7352
32 131562 3976682 7544
33 118942 4070430 7902
34 122998 4178507 8181
35 127298 4290807 8483
36 117629 4441431 8732
37 121203 4583852 8858
38 112039 4739742 9182
39 115256 4867137 9510
40 106984 5008476 9614
41 108106 5124850 9911
42 101698 5236392 9889
43 104889 5331379 10211
44 106000 5389113 10136
45 98463 5435416 10543
46 99781 5457405 10599
47 94337 5460774 10722
48 95420 5440472 10843
49 89173 5406956 10775
50 90573 5353181 10635
51 85830 5295430 11081
52 86682 5226688 11192
53 87989 5157317 11227
54 83365 5097971 11321
55 83636 5040579 11378
56 78456 5002053 11502
57 79057 4976968 11353
58 75206 4963736 11632
59 76793 4972529 11641
60 72527 5006332 11654
61 72846 5058926 11867
62 72927 5137701 11805
63 69426 5237717 11754
64 70204 5356321 11810
65 66292 5486285 11923
66 67258 5635742 11900
67 64470 5796818 11760
68 65656 5957259 11796
69 62693 6131665 11638
70 63076 6304932 11790
71 60654 6476295 11531
72 60811 6625286 11653
73 58151 6775185 11416
74 57999 6912064 11498
75 55500 7026214 11023
76 56233 7118021 10796
77 54056 7192270 10620
78 54500 7232633 10297
79 52344 7243465 10222
80 50996 7239733 9859
81 49551 7200895 9743
82 49998 7135795 9103
83 47957 7047793 8940
84 48093 6930046 8597
85 46651 6796192 8323
86 46881 6640467 8075
87 44783 6453845 7793
88 45347 6254800 7368
89 43518 6039520 7005
90 43398 5811474 6750
91 41993 5573734 6502
92 42083 5327798 6046
93 40268 5085681 5889
94 40969 4831877 5476
95 39436 4578029 5318
96 39491 4328009 5046
97 37765 4089164 4786
98 36035 3850001 4481
99 36154 3620212 4242
100 35049 3397352 4017
101 34236 3186006 3678
102 32958 2984727 3621
103 32810 2790567 3483
104 30893 2612913 3301
105 30547 2440695 3275
106 29577 2277915 3005
107 28302 2131702 2880
108 28542 1993180 2718
109 27611 1870276 2621
110 27732 1756891 2599
111 27008 1654581 2484
112 25937 1559400 2431
113 25145 1474943 2397
114 24181 1400106 2266
115 23833 1331215 2191
116 22635 1273607 2062
117 22693 1219684 2128
118 21361 1172085 2039
119 20504 1130409 1982
120 20571 1092893 1958
121 19518 1064325 1928
122 19372 1035915 1839
123 18977 1011376 1868
124 17764 994661 1774
125 17606 973488 1725
126 17155 956564 1669
127 16287 943428 1686
128 16430 924932 1684
129 15877 912085 1589
130 15618 896753 1566
131 15336 881028 1566
132 14732 868907 1460
133 14692 855060 1406
134 14150 841467 1383
135 13410 825894 1329
136 13277 811450 1326
137 12752 794125 1268
138 12069 779782 1257
139 12297 761051 1206
140 11405 746170 1150
141 11203 727935 1166
142 11280 710810 1123
143 10545 691907 1107
144 9924 674682 1037
145 9650 657170 998
146 9469 636580 995
147 9005 616523 951
148 9184 599372 931
149 8779 579394 841
150 8372 559708 826
151 8264 540782 845
152 7984 521483 802
153 7690 506439 766
154 7896 488041 786
155 7722 471868 733
156 7300 457632 675
157 7295 442998 676
158 6912 429980 630
159 6707 416725 649
160 6387 401508 607
161 6390 387955 614
162 6069 375086 589
163 5745 362969 552
164 5775 350715 575
165 5557 338000 530
166 5295 328481 503
167 5270 315860 487
168 5249 305675 489
169 5166 294993 451
170 4831 283637 443
171 4807 273200 403
172 4559 264890 379
173 4407 253521 374
174 4195 244254 368
175 3988 235067 363
176 3881 225984 327
177 3926 217303 377
178 3891 208357 339
179 3708 199220 333
180 3590 190961 308
181 3372 183122 326
182 3428 175198 281
183 3229 168099 267
184 3111 161172 270
185 3198 153987 230
186 2869 147446 236
187 2745 139629 242
188 2588 132792 218
189 2477 126647 194
190 2596 121340 228
191 2419 116021 207
192 2433 110533 194
193 2310 106014 184
194 2302 100638 174
195 2201 96560 209
196 2072 91633 170
197 2156 87878 181
198 2004 84101 159
199 2022 79989 177
200 1966 76064 164
201 1897 73286 157
202 1851 70679 133
203 1823 67806 144
204 1761 65512 156
205 1702 62968 140
206 1600 61089 149
207 1601 58828 120
208 1467 56899 138
209 1415 55152 132
210 1418 53522 139
211 1444 52439 139
212 1423 50854 138
213 1381 50310 104
214 1218 49106 129
215 1277 48174 115
216 1194 47465 142
217 1157 47569 102
218 1171 46513 113
219 1118 46070 102
220 1046 45744 111
221 1000 45464 118
222 978 44870 106
223 950 44946 109
224 914 44986 106
225 905 45295 99
226 1004 45680 122
227 906 45747 112
228 877 46819 129
229 912 47829 128
230 931 48421 134
231 973 49316 151
232 974 51111 128
233 1014 52233 133
234 1023 54255 123
235 1113 56839 155
236 1066 59580 146
237 1231 63214 143
238 1261 68074 184
239 1463 73777 170
240 1571 81131 176
241 1860 89148 181
242 2145 99672 198
243 2424 110877 164
244 2784 122355 150
245 2959 130910 134
246 1181 132138 76
247 1185 115795 57
248 979 78606 23
249 231 31046 8
250 91 12143 4
251 33 6414 1
252 28 3952 1
253 7 2772 1
254 10 2167 1
255 4 1698 0
256 7 1584 0
257 9 1245 1
258 6 1092 0
259 4 1005 0
260 10 854 1
261 6 717 0
262 4 732 0
263 3 589 0
264 4 545 0
265 4 540 0
266 3 479 0
267 2 394 0
268 2 354 0
269 3 343 0
270 0 300 0
271 1 300 0
272 1 282 0
273 1 238 0
274 1 218 0
275 2 216 0
276 1 192 0
277 1 183 0
278 3 181 0
279 2 157 0
280 0 152 0
281 1 136 0
282 0 129 0
283 2 148 0
284 0 125 0
285 1 119 0
286 0 120 0
287 2 92 0
288 0 95 0
289 0 71 0
290 1 64 0
291 0 74 0
292 0 72 0
293 0 57 0
294 0 58 0
295 0 58 0
296 1 51 0
297 0 46 0
298 0 48 0
299 0 43 0
300 1 42 0
301 0 41 0
302 0 38 0
303 0 38 0
304 0 30 0
305 0 25 0
306 0 27 0
307 0 27 0
308 0 22 0
309 0 25 0
310 0 19 0
311 0 17 0
312 0 14 0
313 0 14 0
314 0 15 0
315 0 10 0
316 0 12 0
317 0 12 0
318 0 9 0
319 0 7 0
320 0 6 0
321 0 6 0
322 0 3 0
323 0 4 0
324 0 8 0
325 0 4 0
326 0 4 0
327 0 4 0
