0 7517545 0 0
1 1656751 0 0
2 825391 0 0
3 637346 0 0
4 592069 0 12
5 609280 0 52
6 651509 0 116
7 712780 0 164
8 776954 0 278
9 846517 0 357
10 932984 0 532
11 1009701 0 707
12 1104448 0 896
13 1204333 0 1214
14 1317809 0 1369
15 201762 1232900 1667
16 200915 1359016 1864
17 194824 1481255 2077
18 193337 1593734 2215
19 191118 1694463 2382
20 185711 1784872 2438
21 173634 1851468 2432
22 168468 1902373 2534
23 163260 1935428 2648
24 157514 1951407 2621
25 150606 1962725 2669
26 145978 1966086 2735
27 136174 1974971 2900
28 128376 1977696 2955
29 122036 1993306 3042
30 117676 2020744 3219
31 116293 2056568 3399
32 111919 2102869 3602
33 109270 2158879 3596
34 108365 2231443 3928
35 103182 2308784 4110
36 101959 2386513 4198
37 97070 2473185 4361
38 96237 2554945 4517
39 94270 2639426 4616
40 89472 2717133 4951
41 87234 2784271 5042
42 83654 2834086 4984
43 82239 2874598 5092
44 80311 2914804 5115
45 77682 2932137 5352
46 76215 2945670 5487
47 74616 2944965 5637
48 71777 2937328 5549
49 70162 2915323 5573
50 69363 2891011 5659
51 67580 2865438 5843
52 66190 2825688 5808
53 64224 2802099 5856
54 62337 2770218 5874
55 60494 2742347 6075
56 59322 2724692 6081
57 57146 2710207 6226
58 57033 2707249 6186
59 55246 2712622 6304
60 54138 2732788 6417
61 53657 2771685 6584
62 53060 2819618 6822
63 53214 2876134 6826
64 51397 2944997 6700
65 50423 3024627 6643
66 49098 3115769 6707
67 48398 3209852 6792
68 46865 3307398 6843
69 46379 3408242 6767
70 46218 3506139 6826
71 44903 3604800 6763
72 43030 3694997 6785
73 42047 3784234 6736
74 41227 3864723 6548
75 40865 3934091 6607
76 39649 3982733 6546
77 38508 4018718 6438
78 38095 4043548 6468
79 37418 4059508 6099
80 36624 4054461 5944
81 36005 4037639 5742
82 35153 3999280 5680
83 34374 3953676 5454
84 34043 3886504 5230
85 32579 3814311 5054
86 32303 3728255 4952
87 31819 3627767 4706
88 30777 3516278 4346
89 29744 3402172 4259
90 29760 3276882 3933
91 28878 3144075 3753
92 28274 3014221 3562
93 27236 2872732 3473
94 26850 2725781 3198
95 26076 2593058 3082
96 25554 2450579 2874
97 24650 2316284 2768
98 24054 2180937 2590
99 23240 2049553 2594
100 22790 1926056 2377
101 22794 1807897 2224
102 22050 1697858 2081
103 22115 1586035 1990
104 21440 1484310 1908
105 20976 1391748 1819
106 20473 1303259 1806
107 20537 1218751 1691
108 19597 1141841 1662
109 19117 1074613 1660
110 19065 1012082 1497
111 18743 954727 1475
112 17953 903017 1442
113 17661 855436 1417
114 17250 813896 1324
115 16830 777455 1327
116 16253 742944 1263
117 16188 711441 1243
118 15506 685623 1245
119 15290 662677 1210
120 15095 642073 1277
121 14522 623289 1160
122 14853 605228 1103
123 14337 592032 1203
124 14060 578832 1069
125 13747 569984 1112
126 13421 557418 1079
127 12940 549336 1010
128 12585 540378 1013
129 12329 530984 1017
130 12308 524207 1018
131 12037 514487 908
132 11521 506500 884
133 11541 499384 928
134 11344 490268 875
135 10908 480439 907
136 10634 472788 915
137 10422 462787 837
138 10297 453652 865
139 9874 443925 780
140 9604 434840 741
141 9574 424790 725
142 9364 413968 734
143 9437 401418 710
144 9191 390221 672
145 9115 380281 662
146 8982 368267 613
147 8771 357230 706
148 8507 344416 605
149 8213 333177 567
150 8116 324250 578
151 8263 311609 563
152 7751 302594 551
153 7630 292278 538
154 7425 279990 504
155 7642 271086 481
156 7408 261140 475
157 7384 251289 464
158 7216 242783 415
159 7213 233865 382
160 6935 225258 413
161 6858 218340 382
162 6652 210857 358
163 6644 204046 383
164 6636 197087 365
165 6503 189412 349
166 6521 182767 337
167 6338 175249 327
168 6386 169529 309
169 6179 163531 301
170 6122 157496 280
171 5919 151393 348
172 5830 145192 295
173 5607 139720 273
174 5560 134745 279
175 5460 129412 247
176 5378 124151 256
177 5529 119642 251
178 5397 113554 233
179 5263 109268 238
180 4991 103584 198
181 4965 99425 183
182 4951 94830 187
183 4834 91026 217
184 4954 87008 184
185 4941 82300 181
186 4949 78856 172
187 5048 75504 123
188 4947 71148 173
189 4884 68269 154
190 4868 65139 144
191 4779 61983 147
192 4823 58964 142
193 4638 55791 118
194 4736 52968 117
195 4765 50395 114
196 4548 48287 121
197 4553 45897 114
198 4486 44284 114
199 4408 41973 89
200 4470 39782 102
201 4376 38028 103
202 4264 36565 101
203 4099 34856 86
204 4064 33452 86
205 4076 32533 83
206 4087 31530 97
207 4032 30461 77
208 4125 29556 93
209 4036 28513 83
210 3789 27457 76
211 4000 26163 83
212 4068 25384 99
213 3977 24832 89
214 4075 23908 85
215 4102 23322 67
216 3995 23156 61
217 4153 22696 72
218 4026 22530 66
219 4149 22313 74
220 4143 22123 92
221 4173 21800 71
222 4354 21539 80
223 4532 21548 67
224 4660 21397 88
225 4849 21435 75
226 4736 21713 84
227 5086 21329 83
228 5158 21944 73
229 5577 22220 66
230 5897 22538 89
231 6065 23154 96
232 6364 23360 96
233 6782 24201 76
234 7402 24850 88
235 7707 25886 99
236 8036 27180 98
237 8895 28828 88
238 9626 30792 110
239 10698 33273 104
240 11917 35799 139
241 13589 39738 128
242 15246 44507 125
243 17563 49646 97
244 20973 55154 90
245 25544 60779 92
246 34956 66864 78
247 50874 73020 54
248 57322 71441 28
249 7151 19570 5
250 2066 6670 4
251 1034 3613 2
252 716 2273 2
253 539 1778 1
254 440 1339 0
255 430 1104 2
256 375 924 0
257 372 872 0
258 364 786 0
259 315 696 0
260 313 623 0
261 320 612 0
262 288 506 0
263 279 515 0
264 292 519 0
265 284 466 0
266 283 425 0
267 280 383 0
268 290 397 0
269 278 385 0
270 275 390 0
271 256 445 0
272 254 399 0
273 264 385 0
274 237 337 0
275 232 288 0
276 246 299 0
277 240 333 0
278 245 308 0
279 246 302 1
280 235 272 0
281 238 297 0
282 244 303 0
283 246 254 0
284 244 257 0
285 227 259 0
286 237 247 0
287 254 260 0
288 230 242 0
289 256 240 0
290 275 236 0
291 250 234 0
292 264 249 0
293 239 284 0
294 243 222 0
295 244 244 0
296 260 258 0
297 240 239 0
298 248 242 0
299 250 192 0
300 225 226 0
301 222 208 0
302 235 200 0
303 228 160 0
304 230 200 0
305 206 169 0
306 225 160 0
307 215 161 0
308 232 174 0
309 197 187 0
310 227 164 0
311 229 177 0
312 211 176 0
313 190 134 0
314 216 180 0
315 183 129 0
316 183 114 0
317 181 127 0
318 176 128 0
319 151 111 0
320 170 101 0
321 146 101 0
322 157 97 0
323 142 104 0
324 156 105 0
325 125 106 0
326 120 108 0
327 128 150 0
328 110 147 0
329 105 109 0
330 100 106 0
331 104 104 0
332 86 79 0
333 88 73 0
334 91 71 0
335 79 72 0
336 77 58 0
337 66 44 0
338 78 55 0
339 58 68 0
340 67 40 0
341 57 68 0
342 60 35 0
343 52 30 0
344 54 29 0
345 49 31 0
346 57 34 0
347 45 31 0
348 48 23 0
349 46 29 0
350 43 30 0
351 45 28 0
352 44 41 0
353 42 23 0
354 38 27 0
355 38 28 0
356 33 15 0
357 39 34 0
358 32 15 0
359 30 13 0
360 30 11 0
361 29 14 0
362 27 7 0
363 25 3 0
364 27 8 0
365 24 4 0
366 19 2 0
367 18 0 0
368 13 0 0
369 14 0 0
370 12 0 0
371 15 0 0
372 8 0 0
373 5 0 0
374 6 0 0
375 2 0 0
376 2 0 0
377 1 0 0
